ghdl/axi4-rom-wom/wave.vcd
$date
  Tue May 30 16:22:42 2023
$end
$version
  GHDL v0
$end
$timescale
  1 fs
$end
$scope module standard $end
$upscope $end
$scope module std_logic_1164 $end
$upscope $end
$scope module numeric_std $end
$upscope $end
$scope module tb_axis $end
$var reg 1 ! sim_start_write $end
$var reg 1 " sim_aw_hndshk_cplt $end
$var reg 8 # sim_data[7:0] $end
$var reg 1 $ sim_start_read $end
$var reg 1 % sim_ar_hndshk_cplt $end
$var reg 1 & clk $end
$var reg 1 ' rst_n $end
$var reg 3 ( o_axi_awid[2:0] $end
$var reg 8 ) o_axi_awaddr[7:0] $end
$var reg 8 * o_axi_awlen[7:0] $end
$var reg 3 + o_axi_awsize[2:0] $end
$var reg 2 , o_axi_awburst[1:0] $end
$var reg 1 - o_axi_awlock $end
$var reg 4 . o_axi_awcache[3:0] $end
$var reg 3 / o_axi_awprot[2:0] $end
$var reg 4 0 o_axi_awqos[3:0] $end
$var reg 4 1 o_axi_awregion[3:0] $end
$comment o_axi_awuser is not handled $end
$var reg 1 2 o_axi_awvalid $end
$var reg 1 3 i_axi_awready $end
$var reg 8 4 o_axi_wdata[7:0] $end
$var reg 1 5 o_axi_wstrb[0:0] $end
$var reg 1 6 o_axi_wlast $end
$comment o_axi_wuser is not handled $end
$var reg 1 7 o_axi_wvalid $end
$var reg 1 8 i_axi_wready $end
$var reg 3 9 i_axi_bid[2:0] $end
$var reg 2 : i_axi_bresp[1:0] $end
$comment i_axi_buser is not handled $end
$var reg 1 ; i_axi_bvalid $end
$var reg 1 < o_axi_bready $end
$var reg 3 = o_axi_arid[2:0] $end
$var reg 8 > o_axi_araddr[7:0] $end
$var reg 8 ? o_axi_arlen[7:0] $end
$var reg 3 @ o_axi_arsize[2:0] $end
$var reg 2 A o_axi_arburst[1:0] $end
$var reg 1 B o_axi_arlock $end
$var reg 4 C o_axi_arcache[3:0] $end
$var reg 3 D o_axi_arprot[2:0] $end
$var reg 4 E o_axi_arqos[3:0] $end
$var reg 4 F o_axi_arregion[3:0] $end
$comment o_axi_aruser is not handled $end
$var reg 1 G o_axi_arvalid $end
$var reg 1 H i_axi_arready $end
$var reg 3 I i_axi_rid[2:0] $end
$var reg 8 J i_axi_rdata[7:0] $end
$var reg 2 K i_axi_rresp[1:0] $end
$var reg 1 L i_axi_rlast $end
$comment i_axi_ruser is not handled $end
$var reg 1 M i_axi_rvalid $end
$var reg 1 N o_axi_rready $end
$var reg 8 O clk_count[7:0] $end
$var reg 8 P outstanding_writes[7:0] $end
$var reg 8 Q outstanding_reads[7:0] $end
$scope module axi_converter_inst $end
$var reg 1 R s_axi_aclk $end
$var reg 1 S s_axi_aresetn $end
$var reg 3 T s_axi_awid[2:0] $end
$var reg 8 U s_axi_awaddr[7:0] $end
$var reg 8 V s_axi_awlen[7:0] $end
$var reg 3 W s_axi_awsize[2:0] $end
$var reg 2 X s_axi_awburst[1:0] $end
$var reg 1 Y s_axi_awlock $end
$var reg 4 Z s_axi_awcache[3:0] $end
$var reg 3 [ s_axi_awprot[2:0] $end
$var reg 4 \ s_axi_awqos[3:0] $end
$var reg 4 ] s_axi_awregion[3:0] $end
$comment s_axi_awuser is not handled $end
$var reg 1 ^ s_axi_awvalid $end
$var reg 1 _ s_axi_awready $end
$var reg 8 ` s_axi_wdata[7:0] $end
$var reg 1 a s_axi_wstrb[0:0] $end
$var reg 1 b s_axi_wlast $end
$comment s_axi_wuser is not handled $end
$var reg 1 c s_axi_wvalid $end
$var reg 1 d s_axi_wready $end
$var reg 3 e s_axi_bid[2:0] $end
$var reg 2 f s_axi_bresp[1:0] $end
$comment s_axi_buser is not handled $end
$var reg 1 g s_axi_bvalid $end
$var reg 1 h s_axi_bready $end
$var reg 3 i s_axi_arid[2:0] $end
$var reg 8 j s_axi_araddr[7:0] $end
$var reg 8 k s_axi_arlen[7:0] $end
$var reg 3 l s_axi_arsize[2:0] $end
$var reg 2 m s_axi_arburst[1:0] $end
$var reg 1 n s_axi_arlock $end
$var reg 4 o s_axi_arcache[3:0] $end
$var reg 3 p s_axi_arprot[2:0] $end
$var reg 4 q s_axi_arqos[3:0] $end
$var reg 4 r s_axi_arregion[3:0] $end
$comment s_axi_aruser is not handled $end
$var reg 1 s s_axi_arvalid $end
$var reg 1 t s_axi_arready $end
$var reg 3 u s_axi_rid[2:0] $end
$var reg 8 v s_axi_rdata[7:0] $end
$var reg 2 w s_axi_rresp[1:0] $end
$var reg 1 x s_axi_rlast $end
$comment s_axi_ruser is not handled $end
$var reg 1 y s_axi_rvalid $end
$var reg 1 z s_axi_rready $end
$comment state_axi_rx is not handled $end
$comment state_axi_tx is not handled $end
$var reg 1 { aclk $end
$var reg 1 | aresetn $end
$var reg 3 } temp_bid[2:0] $end
$var reg 3 !" temp_rid[2:0] $end
$var reg 1 "" bresp_pending $end
$var reg 1 #" rresp_pending $end
$var reg 1 $" o_axi_awready $end
$var reg 1 %" o_axi_wready $end
$var reg 3 &" o_axi_bid[2:0] $end
$var reg 2 '" o_axi_bresp[1:0] $end
$comment o_axi_buser is not handled $end
$var reg 1 (" o_axi_bvalid $end
$var reg 1 )" o_axi_arready $end
$var reg 3 *" o_axi_rid[2:0] $end
$var reg 8 +" o_axi_rdata[7:0] $end
$var reg 2 ," o_axi_rresp[1:0] $end
$var reg 1 -" o_axi_rlast $end
$comment o_axi_ruser is not handled $end
$var reg 1 ." o_axi_rvalid $end
$var reg 8 /" read_burst_count[7:0] $end
$var reg 8 0" n_read_beats[7:0] $end
$upscope $end
$upscope $end
$enddefinitions $end
#0
0!
0"
bUUUUUUUU #
0$
0%
1&
0'
bUUU (
bUUUUUUUU )
bUUUUUUUU *
bUUU +
bUU ,
U-
bUUUU .
bUUU /
bUUUU 0
bUUUU 1
U2
U3
bUUUUUUUU 4
bU 5
U6
U7
18
bUUU 9
bUU :
U;
U<
bUUU =
bUUUUUUUU >
bUUUUUUUU ?
bUUU @
bUU A
UB
bUUUU C
bUUU D
bUUUU E
bUUUU F
UG
UH
bUUU I
bUUUUUUUU J
bUU K
UL
UM
UN
b00000000 O
b00000000 P
b00000000 Q
1R
0S
bUUU T
bUUUUUUUU U
bUUUUUUUU V
bUUU W
bUU X
UY
bUUUU Z
bUUU [
bUUUU \
bUUUU ]
U^
U_
bUUUUUUUU `
bU a
Ub
Uc
1d
bUUU e
bUU f
Ug
Uh
bUUU i
bUUUUUUUU j
bUUUUUUUU k
bUUU l
bUU m
Un
bUUUU o
bUUU p
bUUUU q
bUUUU r
Us
Ut
bUUU u
bUUUUUUUU v
bUU w
Ux
Uy
Uz
1{
0|
bUUU }
bUUU !"
U""
U#"
U$"
U%"
bUUU &"
bUU '"
U("
U)"
bUUU *"
bUUUUUUUU +"
bUU ,"
U-"
U."
bUUUUUUUU /"
bUUUUUUUU 0"
#2500000
0&
0R
0{
#5000000
b00000000 #
1&
b000 (
b00000000 )
b00000000 *
b000 +
b00 ,
0-
b0000 .
b000 /
b0000 0
b0000 1
02
13
b00000000 4
b0 5
06
07
b000 9
b00 :
0;
1<
b000 =
b00000000 >
b00000000 ?
b000 @
b00 A
0G
1H
b00000000 J
0L
0M
1N
b00000001 O
1R
b000 T
b00000000 U
b00000000 V
b000 W
b00 X
0Y
b0000 Z
b000 [
b0000 \
b0000 ]
0^
1_
b00000000 `
b0 a
0b
0c
b000 e
b00 f
0g
1h
b000 i
b00000000 j
b00000000 k
b000 l
b00 m
0s
1t
b00000000 v
0x
0y
1z
1{
0""
0#"
1$"
b000 &"
b00 '"
0("
1)"
b000 *"
b00000000 +"
b00 ,"
0-"
0."
b00000000 /"
#6250000
1'
1S
1|
#7500000
0&
0R
0{
#10000000
1&
b00000010 O
1R
1{
#12500000
0&
0R
0{
#15000000
1!
1&
b00000011 O
b00000001 P
1R
1{
#17500000
0&
0R
0{
#20000000
1&
b101 (
b01000010 )
b00111111 *
b110 +
b01 ,
12
03
b101 9
b00000100 O
1R
b101 T
b01000010 U
b00111111 V
b110 W
b01 X
1^
0_
b101 e
1{
0$"
b101 &"
#22500000
0&
0R
0{
#25000000
0!
b00000001 #
1&
13
b00000001 4
b1 5
17
b00000101 O
1R
1_
b00000001 `
b1 a
1c
1{
1$"
#27500000
0&
0R
0{
#30000000
1"
b00000010 #
1&
b000 (
b00000000 )
b00000000 *
b000 +
b00 ,
02
b00000010 4
b00000110 O
1R
b000 T
b00000000 U
b00000000 V
b000 W
b00 X
0^
b00000010 `
1{
#32500000
0&
0R
0{
#35000000
b00000011 #
1&
b00000011 4
b00000111 O
1R
b00000011 `
1{
#37500000
0&
0R
0{
#40000000
b00000100 #
1&
b00000100 4
b00001000 O
1R
b00000100 `
1{
#42500000
0&
0R
0{
#45000000
b00000101 #
1&
b00000101 4
b00001001 O
1R
b00000101 `
1{
#47500000
0&
0R
0{
#50000000
b00000110 #
1&
b00000110 4
b00001010 O
1R
b00000110 `
1{
#52500000
0&
0R
0{
#55000000
b00000111 #
1&
b00000111 4
b00001011 O
1R
b00000111 `
1{
#57500000
0&
0R
0{
#60000000
b00001000 #
1&
b00001000 4
b00001100 O
1R
b00001000 `
1{
#62500000
0&
0R
0{
#65000000
b00001001 #
1&
b00001001 4
b00001101 O
1R
b00001001 `
1{
#67500000
0&
0R
0{
#70000000
b00001010 #
1&
b00001010 4
b00001110 O
1R
b00001010 `
1{
#72500000
0&
0R
0{
#75000000
b00001011 #
1&
b00001011 4
b00001111 O
1R
b00001011 `
1{
#77500000
0&
0R
0{
#80000000
b00001100 #
1&
b00001100 4
b00010000 O
1R
b00001100 `
1{
#82500000
0&
0R
0{
#85000000
b00001101 #
1&
b00001101 4
b00010001 O
1R
b00001101 `
1{
#87500000
0&
0R
0{
#90000000
b00001110 #
1&
b00001110 4
b00010010 O
1R
b00001110 `
1{
#92500000
0&
0R
0{
#95000000
b00001111 #
1&
b00001111 4
b00010011 O
1R
b00001111 `
1{
#97500000
0&
0R
0{
#100000000
1!
b00010000 #
1&
b00010000 4
16
1;
b00010100 O
b00000010 P
1R
b00010000 `
1b
1g
1{
1("
#102500000
0&
0R
0{
#105000000
b00000001 #
1&
b101 (
b01000010 )
b00111111 *
b110 +
b01 ,
12
03
b00000001 4
06
0<
b00010101 O
b00000001 P
1R
b101 T
b01000010 U
b00111111 V
b110 W
b01 X
1^
0_
b00000001 `
0b
0h
1{
0$"
#107500000
0&
0R
0{
#110000000
0!
b00000010 #
1&
13
b00000010 4
0;
b00010110 O
1R
1_
b00000010 `
0g
1{
1$"
0("
#112500000
0&
0R
0{
#115000000
b00000011 #
1&
b000 (
b00000000 )
b00000000 *
b000 +
b00 ,
02
b00000011 4
1<
b00010111 O
1R
b000 T
b00000000 U
b00000000 V
b000 W
b00 X
0^
b00000011 `
1h
1{
#117500000
0&
0R
0{
#120000000
b00000100 #
1&
b00000100 4
b00011000 O
1R
b00000100 `
1{
#122500000
0&
0R
0{
#125000000
b00000101 #
1&
b00000101 4
b00011001 O
1R
b00000101 `
1{
#127500000
0&
0R
0{
#130000000
b00000110 #
1&
b00000110 4
b00011010 O
1R
b00000110 `
1{
#132500000
0&
0R
0{
#135000000
b00000111 #
1&
b00000111 4
b00011011 O
1R
b00000111 `
1{
#137500000
0&
0R
0{
#140000000
b00001000 #
1&
b00001000 4
b00011100 O
1R
b00001000 `
1{
#142500000
0&
0R
0{
#145000000
b00001001 #
1&
b00001001 4
b00011101 O
1R
b00001001 `
1{
#147500000
0&
0R
0{
#150000000
b00001010 #
1&
b00001010 4
b00011110 O
1R
b00001010 `
1{
#152500000
0&
0R
0{
#155000000
b00001011 #
1&
b00001011 4
b00011111 O
1R
b00001011 `
1{
#157500000
0&
0R
0{
#160000000
b00001100 #
1&
b00001100 4
b00100000 O
1R
b00001100 `
1{
#162500000
0&
0R
0{
#165000000
b00001101 #
1&
b00001101 4
b00100001 O
1R
b00001101 `
1{
#167500000
0&
0R
0{
#170000000
b00001110 #
1&
b00001110 4
b00100010 O
1R
b00001110 `
1{
#172500000
0&
0R
0{
#175000000
b00001111 #
1&
b00001111 4
b00100011 O
1R
b00001111 `
1{
#177500000
0&
0R
0{
#180000000
b00010000 #
1&
b00010000 4
16
1;
b00100100 O
1R
b00010000 `
1b
1g
1{
1("
#182500000
0&
0R
0{
#185000000
0"
b00000000 #
1&
b00000000 4
b0 5
06
07
0<
b00100101 O
b00000000 P
1R
b00000000 `
b0 a
0b
0c
0h
1{
#187500000
0&
0R
0{
#190000000
1&
b00100110 O
1R
1{
#192500000
0&
0R
0{
#195000000
1&
b00100111 O
1R
1{
#197500000
0&
0R
0{
#200000000
1&
b00101000 O
1R
1{
#202500000
0&
0R
0{
#205000000
1&
b00101001 O
1R
1{
#207500000
0&
0R
0{
#210000000
1&
b00101010 O
1R
1{
#212500000
0&
0R
0{
#215000000
1&
b00101011 O
1R
1{
#217500000
0&
0R
0{
#220000000
1&
b00101100 O
1R
1{
#222500000
0&
0R
0{
#225000000
1&
b00101101 O
1R
1{
#227500000
0&
0R
0{
#230000000
1!
1&
b00101110 O
b00000001 P
1R
1{
#232500000
0&
0R
0{
#235000000
1&
b101 (
b01000010 )
b00111111 *
b110 +
b01 ,
12
03
b00101111 O
1R
b101 T
b01000010 U
b00111111 V
b110 W
b01 X
1^
0_
1{
0$"
#237500000
0&
0R
0{
#240000000
0!
b00000001 #
1&
13
b00000001 4
b1 5
17
0;
b00110000 O
1R
1_
b00000001 `
b1 a
1c
0g
1{
1$"
0("
#242500000
0&
0R
0{
#245000000
1"
b00000010 #
1&
b000 (
b00000000 )
b00000000 *
b000 +
b00 ,
02
b00000010 4
1<
b00110001 O
1R
b000 T
b00000000 U
b00000000 V
b000 W
b00 X
0^
b00000010 `
1h
1{
#247500000
0&
0R
0{
#250000000
b00000011 #
1&
b00000011 4
b00110010 O
1R
b00000011 `
1{
#252500000
0&
0R
0{
#255000000
b00000100 #
1&
b00000100 4
b00110011 O
1R
b00000100 `
1{
#257500000
0&
0R
0{
#260000000
b00000101 #
1&
b00000101 4
b00110100 O
1R
b00000101 `
1{
#262500000
0&
0R
0{
#265000000
b00000110 #
1&
b00000110 4
b00110101 O
1R
b00000110 `
1{
#267500000
0&
0R
0{
#270000000
b00000111 #
1&
b00000111 4
b00110110 O
1R
b00000111 `
1{
#272500000
0&
0R
0{
#275000000
b00001000 #
1&
b00001000 4
b00110111 O
1R
b00001000 `
1{
#277500000
0&
0R
0{
#280000000
1!
b00001001 #
1&
b00001001 4
b00111000 O
b00000010 P
1R
b00001001 `
1{
#282500000
0&
0R
0{
#285000000
b00001010 #
1&
b101 (
b01000010 )
b00111111 *
b110 +
b01 ,
12
03
b00001010 4
b00111001 O
1R
b101 T
b01000010 U
b00111111 V
b110 W
b01 X
1^
0_
b00001010 `
1{
b101 }
0$"
#287500000
0&
0R
0{
#290000000
0!
b00001011 #
1&
b00001011 4
b00111010 O
1R
b00001011 `
1{
#292500000
0&
0R
0{
#295000000
b00001100 #
1&
b00001100 4
b00111011 O
1R
b00001100 `
1{
#297500000
0&
0R
0{
#300000000
b00001101 #
1&
b00001101 4
b00111100 O
1R
b00001101 `
1{
#302500000
0&
0R
0{
#305000000
b00001110 #
1&
b00001110 4
b00111101 O
1R
b00001110 `
1{
#307500000
0&
0R
0{
#310000000
b00001111 #
1&
b00001111 4
b00111110 O
1R
b00001111 `
1{
#312500000
0&
0R
0{
#315000000
b00010000 #
1&
13
b00010000 4
16
1;
b00111111 O
1R
1_
b00010000 `
1b
1g
1{
1$"
1("
#317500000
0&
0R
0{
#320000000
b00000001 #
1&
b000 (
b00000000 )
b00000000 *
b000 +
b00 ,
02
b00000001 4
06
0;
0<
b01000000 O
b00000001 P
1R
b000 T
b00000000 U
b00000000 V
b000 W
b00 X
0^
b00000001 `
0b
0g
0h
1{
0("
#322500000
0&
0R
0{
#325000000
b00000010 #
1&
b00000010 4
1<
b01000001 O
1R
b00000010 `
1h
1{
#327500000
0&
0R
0{
#330000000
b00000011 #
1&
b00000011 4
b01000010 O
1R
b00000011 `
1{
#332500000
0&
0R
0{
#335000000
b00000100 #
1&
b00000100 4
b01000011 O
1R
b00000100 `
1{
#337500000
0&
0R
0{
#340000000
b00000101 #
1&
b00000101 4
b01000100 O
1R
b00000101 `
1{
#342500000
0&
0R
0{
#345000000
b00000110 #
1&
b00000110 4
b01000101 O
1R
b00000110 `
1{
#347500000
0&
0R
0{
#350000000
b00000111 #
1&
b00000111 4
b01000110 O
1R
b00000111 `
1{
#352500000
0&
0R
0{
#355000000
b00001000 #
1&
b00001000 4
b01000111 O
1R
b00001000 `
1{
#357500000
0&
0R
0{
#360000000
b00001001 #
1&
b00001001 4
b01001000 O
1R
b00001001 `
1{
#362500000
0&
0R
0{
#365000000
b00001010 #
1&
b00001010 4
b01001001 O
1R
b00001010 `
1{
#367500000
0&
0R
0{
#370000000
b00001011 #
1&
b00001011 4
b01001010 O
1R
b00001011 `
1{
#372500000
0&
0R
0{
#375000000
b00001100 #
1&
b00001100 4
b01001011 O
1R
b00001100 `
1{
#377500000
0&
0R
0{
#380000000
b00001101 #
1&
b00001101 4
b01001100 O
1R
b00001101 `
1{
#382500000
0&
0R
0{
#385000000
b00001110 #
1&
b00001110 4
b01001101 O
1R
b00001110 `
1{
#387500000
0&
0R
0{
#390000000
b00001111 #
1&
b00001111 4
b01001110 O
1R
b00001111 `
1{
#392500000
0&
0R
0{
#395000000
b00010000 #
1&
b00010000 4
16
1;
b01001111 O
1R
b00010000 `
1b
1g
1{
1("
#397500000
0&
0R
0{
#400000000
0"
b00000000 #
1&
b00000000 4
b0 5
06
07
0<
b01010000 O
b00000000 P
1R
b00000000 `
b0 a
0b
0c
0h
1{
#402500000
0&
0R
0{
#405000000
1&
b01010001 O
1R
1{
#407500000
0&
0R
0{
#410000000
1&
b01010010 O
1R
1{
#412500000
0&
0R
0{
#415000000
1&
b01010011 O
1R
1{
#417500000
0&
0R
0{
#420000000
1&
b01010100 O
1R
1{
#422500000
0&
0R
0{
#425000000
1&
b01010101 O
1R
1{
#427500000
0&
0R
0{
#430000000
1&
b01010110 O
1R
1{
#432500000
0&
0R
0{
#435000000
1&
b01010111 O
1R
1{
#437500000
0&
0R
0{
#440000000
1&
b01011000 O
1R
1{
#442500000
0&
0R
0{
#445000000
1&
b01011001 O
1R
1{
#447500000
0&
0R
0{
#450000000
1&
b01011010 O
1R
1{
#452500000
0&
0R
0{
#455000000
1&
b01011011 O
1R
1{
#457500000
0&
0R
0{
#460000000
1&
b01011100 O
1R
1{
#462500000
0&
0R
0{
#465000000
1&
b01011101 O
1R
1{
#467500000
0&
0R
0{
#470000000
1&
b01011110 O
1R
1{
#472500000
0&
0R
0{
#475000000
1&
b01011111 O
1R
1{
#477500000
0&
0R
0{
#480000000
1&
b01100000 O
1R
1{
#482500000
0&
0R
0{
#485000000
1&
b01100001 O
1R
1{
#487500000
0&
0R
0{
#490000000
1&
b01100010 O
1R
1{
#492500000
0&
0R
0{
#495000000
1&
b01100011 O
1R
1{
#497500000
0&
0R
0{
#500000000
1$
1&
b01100100 O
b00000001 Q
1R
1{
#502500000
0&
0R
0{
#505000000
1&
b101 =
b01000010 >
b00001111 ?
b110 @
b01 A
1G
0H
b01100101 O
1R
b101 i
b01000010 j
b00001111 k
b110 l
b01 m
1s
0t
1{
0)"
b101 *"
b00001111 0"
#507500000
0&
0R
0{
#510000000
0$
1&
1H
1M
b01100110 O
1R
1t
1y
1{
1)"
1."
b00000001 /"
#512500000
0&
0R
0{
#515000000
1%
1&
b000 =
b00000000 >
b00000000 ?
b010 @
b00 A
0G
b00000001 J
b01100111 O
1R
b000 i
b00000000 j
b00000000 k
b010 l
b00 m
0s
b00000001 v
1{
b00000001 +"
b00000010 /"
#517500000
0&
0R
0{
#520000000
1&
b00000010 J
b01101000 O
1R
b00000010 v
1{
b00000010 +"
b00000011 /"
#522500000
0&
0R
0{
#525000000
1&
b00000011 J
b01101001 O
1R
b00000011 v
1{
b00000011 +"
b00000100 /"
#527500000
0&
0R
0{
#530000000
1&
b00000100 J
b01101010 O
1R
b00000100 v
1{
b00000100 +"
b00000101 /"
#532500000
0&
0R
0{
#535000000
1&
b00000101 J
b01101011 O
1R
b00000101 v
1{
b00000101 +"
b00000110 /"
#537500000
0&
0R
0{
#540000000
1&
b00000110 J
b01101100 O
1R
b00000110 v
1{
b00000110 +"
b00000111 /"
#542500000
0&
0R
0{
#545000000
1&
b00000111 J
b01101101 O
1R
b00000111 v
1{
b00000111 +"
b00001000 /"
#547500000
0&
0R
0{
#550000000
1&
b00001000 J
b01101110 O
1R
b00001000 v
1{
b00001000 +"
b00001001 /"
#552500000
0&
0R
0{
#555000000
1&
b00001001 J
b01101111 O
1R
b00001001 v
1{
b00001001 +"
b00001010 /"
#557500000
0&
0R
0{
#560000000
1&
b00001010 J
b01110000 O
1R
b00001010 v
1{
b00001010 +"
b00001011 /"
#562500000
0&
0R
0{
#565000000
1&
b00001011 J
b01110001 O
1R
b00001011 v
1{
b00001011 +"
b00001100 /"
#567500000
0&
0R
0{
#570000000
1&
b00001100 J
b01110010 O
1R
b00001100 v
1{
b00001100 +"
b00001101 /"
#572500000
0&
0R
0{
#575000000
1&
b00001101 J
b01110011 O
1R
b00001101 v
1{
b00001101 +"
b00001110 /"
#577500000
0&
0R
0{
#580000000
1&
b00001110 J
b01110100 O
1R
b00001110 v
1{
b00001110 +"
b00001111 /"
#582500000
0&
0R
0{
#585000000
1&
b00001111 J
1L
b01110101 O
1R
b00001111 v
1x
1{
b00001111 +"
1-"
b00000000 /"
#587500000
0&
0R
0{
#590000000
0%
1&
b00000000 J
0L
0M
b01110110 O
b00000000 Q
1R
b00000000 v
0x
0y
1{
b00000000 +"
0-"
0."
#592500000
0&
0R
0{
#595000000
1&
b01110111 O
1R
1{
#597500000
0&
0R
0{
#600000000
1$
1&
b01111000 O
b00000001 Q
1R
1{
#602500000
0&
0R
0{
#605000000
1&
b101 =
b01000010 >
b00001111 ?
b110 @
b01 A
1G
0H
b01111001 O
1R
b101 i
b01000010 j
b00001111 k
b110 l
b01 m
1s
0t
1{
0)"
#607500000
0&
0R
0{
#610000000
0$
1&
1H
1M
b01111010 O
1R
1t
1y
1{
1)"
1."
b00000001 /"
#612500000
0&
0R
0{
#615000000
1%
1&
b000 =
b00000000 >
b00000000 ?
b010 @
b00 A
0G
b00000001 J
b01111011 O
1R
b000 i
b00000000 j
b00000000 k
b010 l
b00 m
0s
b00000001 v
1{
b00000001 +"
b00000010 /"
#617500000
0&
0R
0{
#620000000
1&
b00000010 J
b01111100 O
1R
b00000010 v
1{
b00000010 +"
b00000011 /"
#622500000
0&
0R
0{
#625000000
1&
b00000011 J
b01111101 O
1R
b00000011 v
1{
b00000011 +"
b00000100 /"
#627500000
0&
0R
0{
#630000000
1&
b00000100 J
b01111110 O
1R
b00000100 v
1{
b00000100 +"
b00000101 /"
#632500000
0&
0R
0{
#635000000
1&
b00000101 J
b01111111 O
1R
b00000101 v
1{
b00000101 +"
b00000110 /"
#637500000
0&
0R
0{
#640000000
1&
b00000110 J
b10000000 O
1R
b00000110 v
1{
b00000110 +"
b00000111 /"
#642500000
0&
0R
0{
#645000000
1&
b00000111 J
b10000001 O
1R
b00000111 v
1{
b00000111 +"
b00001000 /"
#647500000
0&
0R
0{
#650000000
1$
1&
b00001000 J
b10000010 O
b00000010 Q
1R
b00001000 v
1{
b00001000 +"
b00001001 /"
#652500000
0&
0R
0{
#655000000
1&
b101 =
b01000010 >
b00001111 ?
b110 @
b01 A
1G
0H
b00001001 J
b10000011 O
1R
b101 i
b01000010 j
b00001111 k
b110 l
b01 m
1s
0t
b00001001 v
1{
b101 !"
0)"
b00001001 +"
b00001010 /"
#657500000
0&
0R
0{
#660000000
0$
1&
b00001010 J
b10000100 O
1R
b00001010 v
1{
b00001010 +"
b00001011 /"
#662500000
0&
0R
0{
#665000000
1&
b00001011 J
b10000101 O
1R
b00001011 v
1{
b00001011 +"
b00001100 /"
#667500000
0&
0R
0{
#670000000
1&
b00001100 J
b10000110 O
1R
b00001100 v
1{
b00001100 +"
b00001101 /"
#672500000
0&
0R
0{
#675000000
1&
b00001101 J
b10000111 O
1R
b00001101 v
1{
b00001101 +"
b00001110 /"
#677500000
0&
0R
0{
#680000000
1&
b00001110 J
b10001000 O
1R
b00001110 v
1{
b00001110 +"
b00001111 /"
#682500000
0&
0R
0{
#685000000
1&
b00001111 J
1L
b10001001 O
1R
b00001111 v
1x
1{
b00001111 +"
1-"
b00000000 /"
#687500000
0&
0R
0{
#690000000
1&
1H
b00000000 J
0L
b10001010 O
b00000001 Q
1R
1t
b00000000 v
0x
1{
1)"
b00000000 +"
0-"
b00000001 /"
#692500000
0&
0R
0{
#695000000
1&
b000 =
b00000000 >
b00000000 ?
b010 @
b00 A
0G
b00000001 J
b10001011 O
1R
b000 i
b00000000 j
b00000000 k
b010 l
b00 m
0s
b00000001 v
1{
b00000001 +"
b00000010 /"
#697500000
0&
0R
0{
#700000000
1&
b00000010 J
b10001100 O
1R
b00000010 v
1{
b00000010 +"
b00000011 /"
#702500000
0&
0R
0{
#705000000
1&
b00000011 J
b10001101 O
1R
b00000011 v
1{
b00000011 +"
b00000100 /"
#707500000
0&
0R
0{
#710000000
1&
b00000100 J
b10001110 O
1R
b00000100 v
1{
b00000100 +"
b00000101 /"
#712500000
0&
0R
0{
#715000000
1&
b00000101 J
b10001111 O
1R
b00000101 v
1{
b00000101 +"
b00000110 /"
#717500000
0&
0R
0{
#720000000
1&
b00000110 J
b10010000 O
1R
b00000110 v
1{
b00000110 +"
b00000111 /"
#722500000
0&
0R
0{
#725000000
1&
b00000111 J
b10010001 O
1R
b00000111 v
1{
b00000111 +"
b00001000 /"
#727500000
0&
0R
0{
#730000000
1&
b00001000 J
b10010010 O
1R
b00001000 v
1{
b00001000 +"
b00001001 /"
#732500000
0&
0R
0{
#735000000
1&
b00001001 J
0N
b10010011 O
1R
b00001001 v
0z
1{
b00001001 +"
#737500000
0&
0R
0{
#740000000
1&
b10010100 O
1R
1{
#742500000
0&
0R
0{
#745000000
1&
b10010101 O
1R
1{
#747500000
0&
0R
0{
#750000000
1&
b10010110 O
1R
1{
#752500000
0&
0R
0{
#755000000
1&
b10010111 O
1R
1{
#757500000
0&
0R
0{
#760000000
1&
b10011000 O
1R
1{
#762500000
0&
0R
0{
#765000000
1&
b10011001 O
1R
1{
#767500000
0&
0R
0{
#770000000
1&
b10011010 O
1R
1{
#772500000
0&
0R
0{
#775000000
1&
b10011011 O
1R
1{
#777500000
0&
0R
0{
#780000000
1&
b10011100 O
1R
1{
#782500000
0&
0R
0{
#785000000
1&
b10011101 O
1R
1{
#787500000
0&
0R
0{
#790000000
1&
1N
b10011110 O
1R
1z
1{
b00001010 /"
#792500000
0&
0R
0{
#795000000
1&
b00001010 J
b10011111 O
1R
b00001010 v
1{
b00001010 +"
b00001011 /"
#797500000
0&
0R
0{
#800000000
1&
b00001011 J
b10100000 O
1R
b00001011 v
1{
b00001011 +"
b00001100 /"
#802500000
0&
0R
0{
#805000000
1&
b00001100 J
b10100001 O
1R
b00001100 v
1{
b00001100 +"
b00001101 /"
#807500000
0&
0R
0{
#810000000
1&
b00001101 J
b10100010 O
1R
b00001101 v
1{
b00001101 +"
b00001110 /"
#812500000
0&
0R
0{
#815000000
1&
b00001110 J
b10100011 O
1R
b00001110 v
1{
b00001110 +"
b00001111 /"
#817500000
0&
0R
0{
#820000000
1&
b00001111 J
1L
b10100100 O
1R
b00001111 v
1x
1{
b00001111 +"
1-"
b00000000 /"
#822500000
0&
0R
0{
#825000000
0%
1&
b00000000 J
0L
0M
b10100101 O
b00000000 Q
1R
b00000000 v
0x
0y
1{
b00000000 +"
0-"
0."
#827500000
0&
0R
0{
#830000000
1&
b10100110 O
1R
1{
#832500000
0&
0R
0{
#835000000
1&
b10100111 O
1R
1{
#837500000
0&
0R
0{
#840000000
1&
b10101000 O
1R
1{
#842500000
0&
0R
0{
#845000000
1&
b10101001 O
1R
1{
#847500000
0&
0R
0{
#850000000
1&
b10101010 O
1R
1{
#852500000
0&
0R
0{
#855000000
1&
b10101011 O
1R
1{
#857500000
0&
0R
0{
#860000000
1&
b10101100 O
1R
1{
#862500000
0&
0R
0{
#865000000
1&
b10101101 O
1R
1{
#867500000
0&
0R
0{
#870000000
1&
b10101110 O
1R
1{
#872500000
0&
0R
0{
#875000000
1&
b10101111 O
1R
1{
#877500000
0&
0R
0{
#880000000
1&
b10110000 O
1R
1{
#882500000
0&
0R
0{
#885000000
1&
b10110001 O
1R
1{
#887500000
0&
0R
0{
#890000000
1&
b10110010 O
1R
1{
#892500000
0&
0R
0{
#895000000
1&
b10110011 O
1R
1{
#897500000
0&
0R
0{
#900000000
1&
b10110100 O
1R
1{
#902500000
0&
0R
0{
#905000000
1&
b10110101 O
1R
1{
#907500000
0&
0R
0{
#910000000
1&
b10110110 O
1R
1{
#912500000
0&
0R
0{
#915000000
1&
b10110111 O
1R
1{
#917500000
0&
0R
0{
#920000000
1&
b10111000 O
1R
1{
#922500000
0&
0R
0{
#925000000
1&
b10111001 O
1R
1{
#927500000
0&
0R
0{
#930000000
1&
b10111010 O
1R
1{
#932500000
0&
0R
0{
#935000000
1&
b10111011 O
1R
1{
#937500000
0&
0R
0{
#940000000
1&
b10111100 O
1R
1{
#942500000
0&
0R
0{
#945000000
1&
b10111101 O
1R
1{
#947500000
0&
0R
0{
#950000000
1&
b10111110 O
1R
1{
#952500000
0&
0R
0{
#955000000
1&
b10111111 O
1R
1{
#957500000
0&
0R
0{
#960000000
1&
b11000000 O
1R
1{
#962500000
0&
0R
0{
#965000000
1&
b11000001 O
1R
1{
#967500000
0&
0R
0{
