ghdl/wave.vcd
$date
  Fri Apr 28 14:39:28 2023
$end
$version
  GHDL v0
$end
$timescale
  1 fs
$end
$scope module standard $end
$upscope $end
$scope module std_logic_1164 $end
$upscope $end
$scope module numeric_std $end
$upscope $end
$scope module tb_myip $end
$var reg 1 ! clk $end
$var reg 1 " rst_n $end
$var reg 5 # axi_awaddr[4:0] $end
$var reg 3 $ axi_awprot[2:0] $end
$var reg 1 % axi_awvalid $end
$var reg 1 & axi_awready $end
$var reg 32 ' axi_wdata[31:0] $end
$var reg 4 ( axi_wstrb[3:0] $end
$var reg 1 ) axi_wvalid $end
$var reg 1 * axi_wready $end
$var reg 2 + axi_bresp[1:0] $end
$var reg 1 , axi_bvalid $end
$var reg 1 - axi_bready $end
$var reg 5 . axi_araddr[4:0] $end
$var reg 3 / axi_arprot[2:0] $end
$var reg 1 0 axi_arvalid $end
$var reg 1 1 axi_arready $end
$var reg 32 2 axi_rdata[31:0] $end
$var reg 2 3 axi_rresp[1:0] $end
$var reg 1 4 axi_rvalid $end
$var reg 1 5 axi_rready $end
$var reg 1 6 start_axis_tvalid $end
$var reg 64 7 start_axis_tdata[63:0] $end
$var reg 1 8 start_axis_tready $end
$var reg 1 9 stop_axis_tvalid $end
$var reg 64 : stop_axis_tdata[63:0] $end
$var reg 1 ; stop_axis_tready $end
$var reg 8 < clk_count[7:0] $end
$scope module myip_inst $end
$var reg 1 = s_axi_aclk $end
$var reg 1 > s_axi_aresetn $end
$var reg 5 ? s_axi_awaddr[4:0] $end
$var reg 3 @ s_axi_awprot[2:0] $end
$var reg 1 A s_axi_awvalid $end
$var reg 1 B s_axi_awready $end
$var reg 32 C s_axi_wdata[31:0] $end
$var reg 4 D s_axi_wstrb[3:0] $end
$var reg 1 E s_axi_wvalid $end
$var reg 1 F s_axi_wready $end
$var reg 2 G s_axi_bresp[1:0] $end
$var reg 1 H s_axi_bvalid $end
$var reg 1 I s_axi_bready $end
$var reg 5 J s_axi_araddr[4:0] $end
$var reg 3 K s_axi_arprot[2:0] $end
$var reg 1 L s_axi_arvalid $end
$var reg 1 M s_axi_arready $end
$var reg 32 N s_axi_rdata[31:0] $end
$var reg 2 O s_axi_rresp[1:0] $end
$var reg 1 P s_axi_rvalid $end
$var reg 1 Q s_axi_rready $end
$var reg 1 R s00_axis_tvalid $end
$var reg 64 S s00_axis_tdata[63:0] $end
$var reg 1 T m00_axis_tready $end
$var reg 1 U s01_axis_tvalid $end
$var reg 64 V s01_axis_tdata[63:0] $end
$var reg 1 W m01_axis_tready $end
$var reg 5 X axi_awaddr[4:0] $end
$var reg 1 Y axi_awready $end
$var reg 1 Z axi_wready $end
$var reg 2 [ axi_bresp[1:0] $end
$var reg 1 \ axi_bvalid $end
$var reg 5 ] axi_araddr[4:0] $end
$var reg 1 ^ axi_arready $end
$var reg 32 _ axi_rdata[31:0] $end
$var reg 2 ` axi_rresp[1:0] $end
$var reg 1 a axi_rvalid $end
$var reg 32 b slv_reg0[31:0] $end
$var reg 32 c slv_reg1[31:0] $end
$var reg 32 d slv_reg2[31:0] $end
$var reg 32 e slv_reg3[31:0] $end
$var reg 32 f slv_reg4[31:0] $end
$var reg 32 g slv_reg5[31:0] $end
$var reg 32 h slv_reg6[31:0] $end
$var reg 32 i slv_reg7[31:0] $end
$var reg 1 j slv_reg_rden $end
$var reg 1 k slv_reg_wren $end
$var reg 32 l reg_data_out[31:0] $end
$var integer 32 m byte_index $end
$var reg 1 n aw_en $end
$var reg 1 o count_en $end
$var reg 1 p trg_start $end
$var reg 1 q trg_stop $end
$scope module pattern_detector_start $end
$var reg 1 r axis_aclk $end
$var reg 1 s axis_aresetn $end
$var reg 1 t s_axis_tvalid $end
$var reg 64 u s_axis_tdata[63:0] $end
$var reg 1 v m_axis_tready $end
$var reg 32 w compare_pattern[31:0] $end
$var reg 1 x match_out $end
$var reg 1 y aclk $end
$var reg 1 z aresetn $end
$var reg 1 { i_s_axis_tvalid $end
$var reg 64 | i_s_axis_tdata[63:0] $end
$var reg 1 } i_m_axis_tready $end
$var reg 32 !" i_pattern[31:0] $end
$var reg 1 "" o_match_out $end
$var reg 2 #" match_accumulator[1:0] $end
$scope module gen_alligned_pattern_detect(0) $end
$upscope $end
$scope module gen_alligned_pattern_detect(1) $end
$upscope $end
$upscope $end
$scope module pattern_detector_stop $end
$var reg 1 $" axis_aclk $end
$var reg 1 %" axis_aresetn $end
$var reg 1 &" s_axis_tvalid $end
$var reg 64 '" s_axis_tdata[63:0] $end
$var reg 1 (" m_axis_tready $end
$var reg 32 )" compare_pattern[31:0] $end
$var reg 1 *" match_out $end
$var reg 1 +" aclk $end
$var reg 1 ," aresetn $end
$var reg 1 -" i_s_axis_tvalid $end
$var reg 64 ." i_s_axis_tdata[63:0] $end
$var reg 1 /" i_m_axis_tready $end
$var reg 32 0" i_pattern[31:0] $end
$var reg 1 1" o_match_out $end
$var reg 2 2" match_accumulator[1:0] $end
$scope module gen_alligned_pattern_detect(0) $end
$upscope $end
$scope module gen_alligned_pattern_detect(1) $end
$upscope $end
$upscope $end
$upscope $end
$upscope $end
$enddefinitions $end
#0
1!
0"
bUUUUU #
bUUU $
U%
U&
bUUUUUUUUUUUUUUUUUUUUUUUUUUUUUUUU '
b1111 (
U)
U*
bUU +
U,
1-
bUUUUU .
bUUU /
U0
U1
bUUUUUUUUUUUUUUUUUUUUUUUUUUUUUUUU 2
bUU 3
U4
15
U6
bUUUUUUUUUUUUUUUUUUUUUUUUUUUUUUUUUUUUUUUUUUUUUUUUUUUUUUUUUUUUUUUU 7
U8
U9
bUUUUUUUUUUUUUUUUUUUUUUUUUUUUUUUUUUUUUUUUUUUUUUUUUUUUUUUUUUUUUUUU :
U;
b00000000 <
1=
0>
bUUUUU ?
bUUU @
UA
UB
bUUUUUUUUUUUUUUUUUUUUUUUUUUUUUUUU C
b1111 D
UE
UF
bUU G
UH
1I
bUUUUU J
bUUU K
UL
UM
bUUUUUUUUUUUUUUUUUUUUUUUUUUUUUUUU N
bUU O
UP
1Q
UR
bUUUUUUUUUUUUUUUUUUUUUUUUUUUUUUUUUUUUUUUUUUUUUUUUUUUUUUUUUUUUUUUU S
UT
UU
bUUUUUUUUUUUUUUUUUUUUUUUUUUUUUUUUUUUUUUUUUUUUUUUUUUUUUUUUUUUUUUUU V
UW
bUUUUU X
UY
UZ
bUU [
U\
bUUUUU ]
U^
bUUUUUUUUUUUUUUUUUUUUUUUUUUUUUUUU _
bUU `
Ua
bUUUUUUUUUUUUUUUUUUUUUUUUUUUUUUUU b
bUUUUUUUUUUUUUUUUUUUUUUUUUUUUUUUU c
bUUUUUUUUUUUUUUUUUUUUUUUUUUUUUUUU d
bUUUUUUUUUUUUUUUUUUUUUUUUUUUUUUUU e
bUUUUUUUUUUUUUUUUUUUUUUUUUUUUUUUU f
bUUUUUUUUUUUUUUUUUUUUUUUUUUUUUUUU g
bUUUUUUUUUUUUUUUUUUUUUUUUUUUUUUUU h
bUUUUUUUUUUUUUUUUUUUUUUUUUUUUUUUU i
Uj
Uk
b00000000000000000000000000000000 l
b10000000000000000000000000000000 m
Un
Uo
Up
Uq
1r
0s
Ut
bUUUUUUUUUUUUUUUUUUUUUUUUUUUUUUUUUUUUUUUUUUUUUUUUUUUUUUUUUUUUUUUU u
Uv
bUUUUUUUUUUUUUUUUUUUUUUUUUUUUUUUU w
Ux
1y
0z
U{
bUUUUUUUUUUUUUUUUUUUUUUUUUUUUUUUUUUUUUUUUUUUUUUUUUUUUUUUUUUUUUUUU |
U}
bUUUUUUUUUUUUUUUUUUUUUUUUUUUUUUUU !"
U""
bUU #"
1$"
0%"
U&"
bUUUUUUUUUUUUUUUUUUUUUUUUUUUUUUUUUUUUUUUUUUUUUUUUUUUUUUUUUUUUUUUU '"
U("
bUUUUUUUUUUUUUUUUUUUUUUUUUUUUUUUU )"
U*"
1+"
0,"
U-"
bUUUUUUUUUUUUUUUUUUUUUUUUUUUUUUUUUUUUUUUUUUUUUUUUUUUUUUUUUUUUUUUU ."
U/"
bUUUUUUUUUUUUUUUUUUUUUUUUUUUUUUUU 0"
U1"
bUU 2"
#2500000
0!
0=
0r
0y
0$"
0+"
#5000000
1!
b00000 #
0%
0&
b00000000000000000000000000000000 '
0)
0*
b00 +
0,
b00000 .
00
01
b00000000000000000000000000000000 2
b00 3
04
06
b0000000000000000000000000000000000000000000000000000000000000000 7
18
09
b0000000000000000000000000000000000000000000000000000000000000000 :
1;
b00000001 <
1=
b00000 ?
0A
0B
b00000000000000000000000000000000 C
0E
0F
b00 G
0H
b00000 J
0L
0M
b00000000000000000000000000000000 N
b00 O
0P
0R
b0000000000000000000000000000000000000000000000000000000000000000 S
1T
0U
b0000000000000000000000000000000000000000000000000000000000000000 V
1W
b00000 X
0Y
0Z
b00 [
0\
b11111 ]
0^
b00000000000000000000000000000000 _
b00 `
0a
b00000000000000000000000000000000 b
b00000000000000000000000000000000 c
b00000000000000000000000000000000 d
b00000000000000000000000000000000 e
b00000000000000000000000000000000 f
b00000000000000000000000000000000 g
b00000000000000000000000000000000 h
b00000000000000000000000000000000 i
0j
0k
1n
0o
0p
0q
1r
0t
b0000000000000000000000000000000000000000000000000000000000000000 u
1v
b00000000000000000000000000000000 w
0x
1y
0{
b0000000000000000000000000000000000000000000000000000000000000000 |
1}
b00000000000000000000000000000000 !"
0""
b00 #"
1$"
0&"
b0000000000000000000000000000000000000000000000000000000000000000 '"
1("
b00000000000000000000000000000000 )"
0*"
1+"
0-"
b0000000000000000000000000000000000000000000000000000000000000000 ."
1/"
b00000000000000000000000000000000 0"
01"
b00 2"
#6250000
1"
1>
1s
1z
1%"
1,"
#7500000
0!
0=
0r
0y
0$"
0+"
#10000000
1!
b00000010 <
1=
b00000000000000000000000000000001 b
1r
1y
1$"
1+"
#12500000
0!
0=
0r
0y
0$"
0+"
#15000000
1!
b00000011 <
1=
b00000000000000000000000000000010 b
1r
1y
1$"
1+"
#17500000
0!
0=
0r
0y
0$"
0+"
#20000000
1!
10
b00000100 <
1=
1L
b00000000000000000000000000000011 b
1r
1y
1$"
1+"
#22500000
0!
0=
0r
0y
0$"
0+"
#25000000
1!
11
b00000101 <
1=
1M
b00000 ]
1^
b00000000000000000000000000000100 b
1j
b00000000000000000000000000000100 l
1r
1y
1$"
1+"
#27500000
0!
0=
0r
0y
0$"
0+"
#30000000
1!
00
01
b00000000000000000000000000000100 2
14
b00000110 <
1=
0L
0M
b00000000000000000000000000000100 N
1P
0^
b00000000000000000000000000000100 _
1a
b00000000000000000000000000000101 b
0j
b00000000000000000000000000000101 l
1r
1y
1$"
1+"
#32500000
0!
0=
0r
0y
0$"
0+"
#35000000
1!
04
b00000111 <
1=
0P
0a
b00000000000000000000000000000110 b
b00000000000000000000000000000110 l
1r
1y
1$"
1+"
#37500000
0!
0=
0r
0y
0$"
0+"
#40000000
1!
b01000 #
1%
b11011110101011011011111011101111 '
1)
b00001000 <
1=
b01000 ?
1A
b11011110101011011011111011101111 C
1E
b00000000000000000000000000000111 b
b00000000000000000000000000000111 l
1r
1y
1$"
1+"
#42500000
0!
0=
0r
0y
0$"
0+"
#45000000
1!
1&
1*
b00001001 <
1=
1B
1F
b01000 X
1Y
1Z
b00000000000000000000000000001000 b
1k
b00000000000000000000000000001000 l
0n
1r
1y
1$"
1+"
#47500000
0!
0=
0r
0y
0$"
0+"
#50000000
1!
b00000 #
0%
0&
b00000000000000000000000000000000 '
0)
0*
1,
b00001010 <
1=
b00000 ?
0A
0B
b00000000000000000000000000000000 C
0E
0F
1H
0Y
0Z
1\
b11011110101011011011111011101111 d
0k
1r
b11011110101011011011111011101111 w
1y
b11011110101011011011111011101111 !"
1$"
1+"
#52500000
0!
0=
0r
0y
0$"
0+"
#55000000
1!
0,
b00001011 <
1=
0H
0\
b00000000000000000000000000001001 b
b00000000000000000000000000001001 l
1n
1r
1y
1$"
1+"
#57500000
0!
0=
0r
0y
0$"
0+"
#60000000
1!
b01100 #
1%
b11011110101011011011111011101111 '
1)
b00001100 <
1=
b01100 ?
1A
b11011110101011011011111011101111 C
1E
b00000000000000000000000000001010 b
b00000000000000000000000000001010 l
1r
1y
1$"
1+"
#62500000
0!
0=
0r
0y
0$"
0+"
#65000000
1!
1&
1*
b00001101 <
1=
1B
1F
b01100 X
1Y
1Z
b00000000000000000000000000001011 b
1k
b00000000000000000000000000001011 l
0n
1r
1y
1$"
1+"
#67500000
0!
0=
0r
0y
0$"
0+"
#70000000
1!
b00000 #
0%
0&
b00000000000000000000000000000000 '
0)
0*
1,
b00001110 <
1=
b00000 ?
0A
0B
b00000000000000000000000000000000 C
0E
0F
1H
0Y
0Z
1\
b11011110101011011011111011101111 e
0k
1r
1y
1$"
b11011110101011011011111011101111 )"
1+"
b11011110101011011011111011101111 0"
#72500000
0!
0=
0r
0y
0$"
0+"
#75000000
1!
0,
b00001111 <
1=
0H
0\
b00000000000000000000000000001100 b
b00000000000000000000000000001100 l
1n
1r
1y
1$"
1+"
#77500000
0!
0=
0r
0y
0$"
0+"
#80000000
1!
b10000 #
1%
1)
b00010000 <
1=
b10000 ?
1A
1E
b00000000000000000000000000001101 b
b00000000000000000000000000001101 l
1r
1y
1$"
1+"
#82500000
0!
0=
0r
0y
0$"
0+"
#85000000
1!
1&
1*
b00010001 <
1=
1B
1F
b10000 X
1Y
1Z
b00000000000000000000000000001110 b
1k
b00000000000000000000000000001110 l
0n
1r
1y
1$"
1+"
#87500000
0!
0=
0r
0y
0$"
0+"
#90000000
1!
b00000 #
0%
0&
0)
0*
1,
b00010010 <
1=
b00000 ?
0A
0B
0E
0F
1H
0Y
0Z
1\
0k
1r
1y
1$"
1+"
#92500000
0!
0=
0r
0y
0$"
0+"
#95000000
1!
0,
16
b0000000000000000000000000000000011011110101011011011111011101111 7
b00010011 <
1=
0H
1R
b0000000000000000000000000000000011011110101011011011111011101111 S
0\
b00000000000000000000000000001111 b
b00000000000000000000000000001111 l
1n
1r
1t
b0000000000000000000000000000000011011110101011011011111011101111 u
1y
1{
b0000000000000000000000000000000011011110101011011011111011101111 |
1$"
1+"
#97500000
0!
0=
0r
0y
0$"
0+"
#100000000
1!
b0000000000000000000000000000000010101010101110111100110011011101 7
b00010100 <
1=
b0000000000000000000000000000000010101010101110111100110011011101 S
b00000000000000000000000000010000 b
b00000000000000000000000000010000 l
1r
b0000000000000000000000000000000010101010101110111100110011011101 u
1y
b0000000000000000000000000000000010101010101110111100110011011101 |
b01 #"
1$"
1+"
#102500000
0!
0=
0r
0y
0$"
0+"
#105000000
1!
b0000000000000000000000000000000000011111000111110001111100011111 7
b00010101 <
1=
b0000000000000000000000000000000000011111000111110001111100011111 S
b00000000000000000000000000010001 b
b00000000000000000000000000010001 l
1p
1r
b0000000000000000000000000000000000011111000111110001111100011111 u
1x
1y
b0000000000000000000000000000000000011111000111110001111100011111 |
1""
b00 #"
1$"
1+"
#107500000
0!
0=
0r
0y
0$"
0+"
#110000000
1!
06
b0000000000000000000000000000000000000000000000000000000000000000 7
b00010110 <
1=
0R
b0000000000000000000000000000000000000000000000000000000000000000 S
b00000000000000000000000000010010 b
b00000000000000000000000000010010 l
1o
0p
1r
0t
b0000000000000000000000000000000000000000000000000000000000000000 u
0x
1y
0{
b0000000000000000000000000000000000000000000000000000000000000000 |
0""
1$"
1+"
#112500000
0!
0=
0r
0y
0$"
0+"
#115000000
1!
b00010111 <
1=
b00000000000000000000000000010011 b
b00000000000000000000000000000001 f
b00000000000000000000000000010011 l
1r
1y
1$"
1+"
#117500000
0!
0=
0r
0y
0$"
0+"
#120000000
1!
b00011000 <
1=
b00000000000000000000000000010100 b
b00000000000000000000000000000010 f
b00000000000000000000000000010100 l
1r
1y
1$"
1+"
#122500000
0!
0=
0r
0y
0$"
0+"
#125000000
1!
b00011001 <
1=
b00000000000000000000000000010101 b
b00000000000000000000000000000011 f
b00000000000000000000000000010101 l
1r
1y
1$"
1+"
#127500000
0!
0=
0r
0y
0$"
0+"
#130000000
1!
b00011010 <
1=
b00000000000000000000000000010110 b
b00000000000000000000000000000100 f
b00000000000000000000000000010110 l
1r
1y
1$"
1+"
#132500000
0!
0=
0r
0y
0$"
0+"
#135000000
1!
b00011011 <
1=
b00000000000000000000000000010111 b
b00000000000000000000000000000101 f
b00000000000000000000000000010111 l
1r
1y
1$"
1+"
#137500000
0!
0=
0r
0y
0$"
0+"
#140000000
1!
b00011100 <
1=
b00000000000000000000000000011000 b
b00000000000000000000000000000110 f
b00000000000000000000000000011000 l
1r
1y
1$"
1+"
#142500000
0!
0=
0r
0y
0$"
0+"
#145000000
1!
b00011101 <
1=
b00000000000000000000000000011001 b
b00000000000000000000000000000111 f
b00000000000000000000000000011001 l
1r
1y
1$"
1+"
#147500000
0!
0=
0r
0y
0$"
0+"
#150000000
1!
b00011110 <
1=
b00000000000000000000000000011010 b
b00000000000000000000000000001000 f
b00000000000000000000000000011010 l
1r
1y
1$"
1+"
#152500000
0!
0=
0r
0y
0$"
0+"
#155000000
1!
b00011111 <
1=
b00000000000000000000000000011011 b
b00000000000000000000000000001001 f
b00000000000000000000000000011011 l
1r
1y
1$"
1+"
#157500000
0!
0=
0r
0y
0$"
0+"
#160000000
1!
10
b00100000 <
1=
1L
b00000000000000000000000000011100 b
b00000000000000000000000000001010 f
b00000000000000000000000000011100 l
1r
1y
1$"
1+"
#162500000
0!
0=
0r
0y
0$"
0+"
#165000000
1!
11
b00100001 <
1=
1M
1^
b00000000000000000000000000011101 b
b00000000000000000000000000001011 f
1j
b00000000000000000000000000011101 l
1r
1y
1$"
1+"
#167500000
0!
0=
0r
0y
0$"
0+"
#170000000
1!
00
01
b00000000000000000000000000011101 2
14
b00100010 <
1=
0L
0M
b00000000000000000000000000011101 N
1P
0^
b00000000000000000000000000011101 _
1a
b00000000000000000000000000011110 b
b00000000000000000000000000001100 f
0j
b00000000000000000000000000011110 l
1r
1y
1$"
1+"
#172500000
0!
0=
0r
0y
0$"
0+"
#175000000
1!
04
b00100011 <
1=
0P
0a
b00000000000000000000000000011111 b
b00000000000000000000000000001101 f
b00000000000000000000000000011111 l
1r
1y
1$"
1+"
#177500000
0!
0=
0r
0y
0$"
0+"
#180000000
1!
b00100100 <
1=
b00000000000000000000000000100000 b
b00000000000000000000000000001110 f
b00000000000000000000000000100000 l
1r
1y
1$"
1+"
#182500000
0!
0=
0r
0y
0$"
0+"
#185000000
1!
b00100101 <
1=
b00000000000000000000000000100001 b
b00000000000000000000000000001111 f
b00000000000000000000000000100001 l
1r
1y
1$"
1+"
#187500000
0!
0=
0r
0y
0$"
0+"
#190000000
1!
b00100110 <
1=
b00000000000000000000000000100010 b
b00000000000000000000000000010000 f
b00000000000000000000000000100010 l
1r
1y
1$"
1+"
#192500000
0!
0=
0r
0y
0$"
0+"
#195000000
1!
b00100111 <
1=
b00000000000000000000000000100011 b
b00000000000000000000000000010001 f
b00000000000000000000000000100011 l
1r
1y
1$"
1+"
#197500000
0!
0=
0r
0y
0$"
0+"
#200000000
1!
b00101000 <
1=
b00000000000000000000000000100100 b
b00000000000000000000000000010010 f
b00000000000000000000000000100100 l
1r
1y
1$"
1+"
#202500000
0!
0=
0r
0y
0$"
0+"
#205000000
1!
b00101001 <
1=
b00000000000000000000000000100101 b
b00000000000000000000000000010011 f
b00000000000000000000000000100101 l
1r
1y
1$"
1+"
#207500000
0!
0=
0r
0y
0$"
0+"
#210000000
1!
b00101010 <
1=
b00000000000000000000000000100110 b
b00000000000000000000000000010100 f
b00000000000000000000000000100110 l
1r
1y
1$"
1+"
#212500000
0!
0=
0r
0y
0$"
0+"
#215000000
1!
b00101011 <
1=
b00000000000000000000000000100111 b
b00000000000000000000000000010101 f
b00000000000000000000000000100111 l
1r
1y
1$"
1+"
#217500000
0!
0=
0r
0y
0$"
0+"
#220000000
1!
19
b0000000000000000000000000000000011011110101011011011111011101111 :
b00101100 <
1=
1U
b0000000000000000000000000000000011011110101011011011111011101111 V
b00000000000000000000000000101000 b
b00000000000000000000000000010110 f
b00000000000000000000000000101000 l
1r
1y
1$"
1&"
b0000000000000000000000000000000011011110101011011011111011101111 '"
1+"
1-"
b0000000000000000000000000000000011011110101011011011111011101111 ."
#222500000
0!
0=
0r
0y
0$"
0+"
#225000000
1!
b0000000000000000000000000000000010101010101110111100110011011101 :
b00101101 <
1=
b0000000000000000000000000000000010101010101110111100110011011101 V
b00000000000000000000000000101001 b
b00000000000000000000000000010111 f
b00000000000000000000000000101001 l
1r
1y
1$"
b0000000000000000000000000000000010101010101110111100110011011101 '"
1+"
b0000000000000000000000000000000010101010101110111100110011011101 ."
b01 2"
#227500000
0!
0=
0r
0y
0$"
0+"
#230000000
1!
b0000000000000000000000000000000000011111000111110001111100011111 :
b00101110 <
1=
b0000000000000000000000000000000000011111000111110001111100011111 V
b00000000000000000000000000101010 b
b00000000000000000000000000011000 f
b00000000000000000000000000101010 l
1q
1r
1y
1$"
b0000000000000000000000000000000000011111000111110001111100011111 '"
1*"
1+"
b0000000000000000000000000000000000011111000111110001111100011111 ."
11"
b00 2"
#232500000
0!
0=
0r
0y
0$"
0+"
#235000000
1!
09
b0000000000000000000000000000000000000000000000000000000000000000 :
b00101111 <
1=
0U
b0000000000000000000000000000000000000000000000000000000000000000 V
b00000000000000000000000000101011 b
b00000000000000000000000000011001 f
b00000000000000000000000000101011 l
0o
0q
1r
1y
1$"
0&"
b0000000000000000000000000000000000000000000000000000000000000000 '"
0*"
1+"
0-"
b0000000000000000000000000000000000000000000000000000000000000000 ."
01"
#237500000
0!
0=
0r
0y
0$"
0+"
#240000000
1!
b00110000 <
1=
b00000000000000000000000000101100 b
b00000000000000000000000000101100 l
1r
1y
1$"
1+"
#242500000
0!
0=
0r
0y
0$"
0+"
#245000000
1!
b00110001 <
1=
b00000000000000000000000000101101 b
b00000000000000000000000000101101 l
1r
1y
1$"
1+"
#247500000
0!
0=
0r
0y
0$"
0+"
#250000000
1!
b00110010 <
1=
b00000000000000000000000000101110 b
b00000000000000000000000000101110 l
1r
1y
1$"
1+"
#252500000
0!
0=
0r
0y
0$"
0+"
#255000000
1!
b10000 .
10
b00110011 <
1=
b10000 J
1L
b00000000000000000000000000101111 b
b00000000000000000000000000101111 l
1r
1y
1$"
1+"
#257500000
0!
0=
0r
0y
0$"
0+"
#260000000
1!
11
b00110100 <
1=
1M
b10000 ]
1^
b00000000000000000000000000110000 b
1j
b00000000000000000000000000011001 l
1r
1y
1$"
1+"
#262500000
0!
0=
0r
0y
0$"
0+"
#265000000
1!
b00000 .
00
01
b00000000000000000000000000011001 2
14
b00110101 <
1=
b00000 J
0L
0M
b00000000000000000000000000011001 N
1P
0^
b00000000000000000000000000011001 _
1a
b00000000000000000000000000110001 b
0j
1r
1y
1$"
1+"
#267500000
0!
0=
0r
0y
0$"
0+"
#270000000
1!
04
b00110110 <
1=
0P
0a
b00000000000000000000000000110010 b
1r
1y
1$"
1+"
#272500000
0!
0=
0r
0y
0$"
0+"
#275000000
1!
b00110111 <
1=
b00000000000000000000000000110011 b
1r
1y
1$"
1+"
#277500000
0!
0=
0r
0y
0$"
0+"
#280000000
1!
b00111000 <
1=
b00000000000000000000000000110100 b
1r
1y
1$"
1+"
#282500000
0!
0=
0r
0y
0$"
0+"
#285000000
1!
b00111001 <
1=
b00000000000000000000000000110101 b
1r
1y
1$"
1+"
#287500000
0!
0=
0r
0y
0$"
0+"
#290000000
1!
b00111010 <
1=
b00000000000000000000000000110110 b
1r
1y
1$"
1+"
#292500000
0!
0=
0r
0y
0$"
0+"
#295000000
1!
b00111011 <
1=
b00000000000000000000000000110111 b
1r
1y
1$"
1+"
#297500000
0!
0=
0r
0y
0$"
0+"
#300000000
1!
b00111100 <
1=
b00000000000000000000000000111000 b
1r
1y
1$"
1+"
#302500000
0!
0=
0r
0y
0$"
0+"
#305000000
1!
b00111101 <
1=
b00000000000000000000000000111001 b
1r
1y
1$"
1+"
#307500000
0!
0=
0r
0y
0$"
0+"
#310000000
1!
b00111110 <
1=
b00000000000000000000000000111010 b
1r
1y
1$"
1+"
#312500000
0!
0=
0r
0y
0$"
0+"
#315000000
1!
b00111111 <
1=
b00000000000000000000000000111011 b
1r
1y
1$"
1+"
#317500000
0!
0=
0r
0y
0$"
0+"
#320000000
1!
b01000000 <
1=
b00000000000000000000000000111100 b
1r
1y
1$"
1+"
#322500000
0!
0=
0r
0y
0$"
0+"
#325000000
1!
b01000001 <
1=
b00000000000000000000000000111101 b
1r
1y
1$"
1+"
#327500000
0!
0=
0r
0y
0$"
0+"
#330000000
1!
b01000010 <
1=
b00000000000000000000000000111110 b
1r
1y
1$"
1+"
#332500000
0!
0=
0r
0y
0$"
0+"
#335000000
1!
b01000011 <
1=
b00000000000000000000000000111111 b
1r
1y
1$"
1+"
#337500000
0!
0=
0r
0y
0$"
0+"
#340000000
1!
b01000100 <
1=
b00000000000000000000000001000000 b
1r
1y
1$"
1+"
#342500000
0!
0=
0r
0y
0$"
0+"
#345000000
1!
b01000101 <
1=
b00000000000000000000000001000001 b
1r
1y
1$"
1+"
#347500000
0!
0=
0r
0y
0$"
0+"
#350000000
1!
b01000110 <
1=
b00000000000000000000000001000010 b
1r
1y
1$"
1+"
#352500000
0!
0=
0r
0y
0$"
0+"
#355000000
1!
b01000111 <
1=
b00000000000000000000000001000011 b
1r
1y
1$"
1+"
#357500000
0!
0=
0r
0y
0$"
0+"
#360000000
1!
b01001000 <
1=
b00000000000000000000000001000100 b
1r
1y
1$"
1+"
#362500000
0!
0=
0r
0y
0$"
0+"
#365000000
1!
b01001001 <
1=
b00000000000000000000000001000101 b
1r
1y
1$"
1+"
#367500000
0!
0=
0r
0y
0$"
0+"
#370000000
1!
b01001010 <
1=
b00000000000000000000000001000110 b
1r
1y
1$"
1+"
#372500000
0!
0=
0r
0y
0$"
0+"
#375000000
1!
b01001011 <
1=
b00000000000000000000000001000111 b
1r
1y
1$"
1+"
#377500000
0!
0=
0r
0y
0$"
0+"
#380000000
1!
b01001100 <
1=
b00000000000000000000000001001000 b
1r
1y
1$"
1+"
#382500000
0!
0=
0r
0y
0$"
0+"
#385000000
1!
b01001101 <
1=
b00000000000000000000000001001001 b
1r
1y
1$"
1+"
#387500000
0!
0=
0r
0y
0$"
0+"
#390000000
1!
b01001110 <
1=
b00000000000000000000000001001010 b
1r
1y
1$"
1+"
#392500000
0!
0=
0r
0y
0$"
0+"
#395000000
1!
b01001111 <
1=
b00000000000000000000000001001011 b
1r
1y
1$"
1+"
#397500000
0!
0=
0r
0y
0$"
0+"
#400000000
1!
b01010000 <
1=
b00000000000000000000000001001100 b
1r
1y
1$"
1+"
#402500000
0!
0=
0r
0y
0$"
0+"
#405000000
1!
b01010001 <
1=
b00000000000000000000000001001101 b
1r
1y
1$"
1+"
#407500000
0!
0=
0r
0y
0$"
0+"
#410000000
1!
b01010010 <
1=
b00000000000000000000000001001110 b
1r
1y
1$"
1+"
#412500000
0!
0=
0r
0y
0$"
0+"
#415000000
1!
b01010011 <
1=
b00000000000000000000000001001111 b
1r
1y
1$"
1+"
#417500000
0!
0=
0r
0y
0$"
0+"
#420000000
1!
b01010100 <
1=
b00000000000000000000000001010000 b
1r
1y
1$"
1+"
#422500000
0!
0=
0r
0y
0$"
0+"
#425000000
1!
b01010101 <
1=
b00000000000000000000000001010001 b
1r
1y
1$"
1+"
#427500000
0!
0=
0r
0y
0$"
0+"
#430000000
1!
b01010110 <
1=
b00000000000000000000000001010010 b
1r
1y
1$"
1+"
#432500000
0!
0=
0r
0y
0$"
0+"
#435000000
1!
b01010111 <
1=
b00000000000000000000000001010011 b
1r
1y
1$"
1+"
#437500000
0!
0=
0r
0y
0$"
0+"
#440000000
1!
b01011000 <
1=
b00000000000000000000000001010100 b
1r
1y
1$"
1+"
#442500000
0!
0=
0r
0y
0$"
0+"
#445000000
1!
b01011001 <
1=
b00000000000000000000000001010101 b
1r
1y
1$"
1+"
#447500000
0!
0=
0r
0y
0$"
0+"
#450000000
1!
b01011010 <
1=
b00000000000000000000000001010110 b
1r
1y
1$"
1+"
#452500000
0!
0=
0r
0y
0$"
0+"
#455000000
1!
b01011011 <
1=
b00000000000000000000000001010111 b
1r
1y
1$"
1+"
#457500000
0!
0=
0r
0y
0$"
0+"
#460000000
1!
b01011100 <
1=
b00000000000000000000000001011000 b
1r
1y
1$"
1+"
#462500000
0!
0=
0r
0y
0$"
0+"
#465000000
1!
b01011101 <
1=
b00000000000000000000000001011001 b
1r
1y
1$"
1+"
#467500000
0!
0=
0r
0y
0$"
0+"
#470000000
1!
b01011110 <
1=
b00000000000000000000000001011010 b
1r
1y
1$"
1+"
#472500000
0!
0=
0r
0y
0$"
0+"
#475000000
1!
b01011111 <
1=
b00000000000000000000000001011011 b
1r
1y
1$"
1+"
#477500000
0!
0=
0r
0y
0$"
0+"
#480000000
1!
b01100000 <
1=
b00000000000000000000000001011100 b
1r
1y
1$"
1+"
#482500000
0!
0=
0r
0y
0$"
0+"
#485000000
1!
b01100001 <
1=
b00000000000000000000000001011101 b
1r
1y
1$"
1+"
#487500000
0!
0=
0r
0y
0$"
0+"
#490000000
1!
b01100010 <
1=
b00000000000000000000000001011110 b
1r
1y
1$"
1+"
#492500000
0!
0=
0r
0y
0$"
0+"
#495000000
1!
b01100011 <
1=
b00000000000000000000000001011111 b
1r
1y
1$"
1+"
#497500000
0!
0=
0r
0y
0$"
0+"
#500000000
1!
b01100100 <
1=
b00000000000000000000000001100000 b
1r
1y
1$"
1+"
#502500000
0!
0=
0r
0y
0$"
0+"
#505000000
1!
b01100101 <
1=
b00000000000000000000000001100001 b
1r
1y
1$"
1+"
#507500000
0!
0=
0r
0y
0$"
0+"
