ghdl/wave.vcd
$date
  Tue May 02 12:00:11 2023
$end
$version
  GHDL v0
$end
$timescale
  1 fs
$end
$scope module standard $end
$upscope $end
$scope module std_logic_1164 $end
$upscope $end
$scope module numeric_std $end
$upscope $end
$scope module tb_myip $end
$var reg 1 ! clk $end
$var reg 1 " rst_n $end
$var reg 5 # axi_awaddr[4:0] $end
$var reg 3 $ axi_awprot[2:0] $end
$var reg 1 % axi_awvalid $end
$var reg 1 & axi_awready $end
$var reg 32 ' axi_wdata[31:0] $end
$var reg 4 ( axi_wstrb[3:0] $end
$var reg 1 ) axi_wvalid $end
$var reg 1 * axi_wready $end
$var reg 2 + axi_bresp[1:0] $end
$var reg 1 , axi_bvalid $end
$var reg 1 - axi_bready $end
$var reg 5 . axi_araddr[4:0] $end
$var reg 3 / axi_arprot[2:0] $end
$var reg 1 0 axi_arvalid $end
$var reg 1 1 axi_arready $end
$var reg 32 2 axi_rdata[31:0] $end
$var reg 2 3 axi_rresp[1:0] $end
$var reg 1 4 axi_rvalid $end
$var reg 1 5 axi_rready $end
$var reg 1 6 start_axis_tvalid $end
$var reg 512 7 start_axis_tdata[511:0] $end
$var reg 1 8 start_axis_tready $end
$var reg 1 9 stop_axis_tvalid $end
$var reg 512 : stop_axis_tdata[511:0] $end
$var reg 1 ; stop_axis_tready $end
$var reg 8 < clk_count[7:0] $end
$scope module myip_inst $end
$var reg 1 = s_axi_aclk $end
$var reg 1 > s_axi_aresetn $end
$var reg 5 ? s_axi_awaddr[4:0] $end
$var reg 3 @ s_axi_awprot[2:0] $end
$var reg 1 A s_axi_awvalid $end
$var reg 1 B s_axi_awready $end
$var reg 32 C s_axi_wdata[31:0] $end
$var reg 4 D s_axi_wstrb[3:0] $end
$var reg 1 E s_axi_wvalid $end
$var reg 1 F s_axi_wready $end
$var reg 2 G s_axi_bresp[1:0] $end
$var reg 1 H s_axi_bvalid $end
$var reg 1 I s_axi_bready $end
$var reg 5 J s_axi_araddr[4:0] $end
$var reg 3 K s_axi_arprot[2:0] $end
$var reg 1 L s_axi_arvalid $end
$var reg 1 M s_axi_arready $end
$var reg 32 N s_axi_rdata[31:0] $end
$var reg 2 O s_axi_rresp[1:0] $end
$var reg 1 P s_axi_rvalid $end
$var reg 1 Q s_axi_rready $end
$var reg 1 R s00_axis_tvalid $end
$var reg 512 S s00_axis_tdata[511:0] $end
$var reg 1 T m00_axis_tready $end
$var reg 1 U s01_axis_tvalid $end
$var reg 512 V s01_axis_tdata[511:0] $end
$var reg 1 W m01_axis_tready $end
$var reg 5 X axi_awaddr[4:0] $end
$var reg 1 Y axi_awready $end
$var reg 1 Z axi_wready $end
$var reg 2 [ axi_bresp[1:0] $end
$var reg 1 \ axi_bvalid $end
$var reg 5 ] axi_araddr[4:0] $end
$var reg 1 ^ axi_arready $end
$var reg 32 _ axi_rdata[31:0] $end
$var reg 2 ` axi_rresp[1:0] $end
$var reg 1 a axi_rvalid $end
$var reg 32 b slv_reg0[31:0] $end
$var reg 32 c slv_reg1[31:0] $end
$var reg 32 d slv_reg2[31:0] $end
$var reg 32 e slv_reg3[31:0] $end
$var reg 32 f slv_reg4[31:0] $end
$var reg 32 g slv_reg5[31:0] $end
$var reg 32 h slv_reg6[31:0] $end
$var reg 32 i slv_reg7[31:0] $end
$var reg 1 j slv_reg_rden $end
$var reg 1 k slv_reg_wren $end
$var reg 32 l reg_data_out[31:0] $end
$var integer 32 m byte_index $end
$var reg 1 n aw_en $end
$var reg 1 o count_en $end
$var reg 1 p trg_start $end
$var reg 1 q trg_stop $end
$scope module pattern_detector_start $end
$var reg 1 r axis_aclk $end
$var reg 1 s axis_aresetn $end
$var reg 1 t s_axis_tvalid $end
$var reg 512 u s_axis_tdata[511:0] $end
$var reg 1 v m_axis_tready $end
$var reg 32 w compare_pattern[31:0] $end
$var reg 1 x match_out $end
$var reg 1 y aclk $end
$var reg 1 z aresetn $end
$var reg 1 { i_s_axis_tvalid $end
$var reg 512 | i_s_axis_tdata[511:0] $end
$var reg 1 } i_m_axis_tready $end
$var reg 32 !" i_pattern[31:0] $end
$var reg 1 "" o_match_out $end
$var reg 61 #" match_accumulator[60:0] $end
$scope module gen_alligned_pattern_detect(0) $end
$upscope $end
$scope module gen_alligned_pattern_detect(1) $end
$upscope $end
$scope module gen_alligned_pattern_detect(2) $end
$upscope $end
$scope module gen_alligned_pattern_detect(3) $end
$upscope $end
$scope module gen_alligned_pattern_detect(4) $end
$upscope $end
$scope module gen_alligned_pattern_detect(5) $end
$upscope $end
$scope module gen_alligned_pattern_detect(6) $end
$upscope $end
$scope module gen_alligned_pattern_detect(7) $end
$upscope $end
$scope module gen_alligned_pattern_detect(8) $end
$upscope $end
$scope module gen_alligned_pattern_detect(9) $end
$upscope $end
$scope module gen_alligned_pattern_detect(10) $end
$upscope $end
$scope module gen_alligned_pattern_detect(11) $end
$upscope $end
$scope module gen_alligned_pattern_detect(12) $end
$upscope $end
$scope module gen_alligned_pattern_detect(13) $end
$upscope $end
$scope module gen_alligned_pattern_detect(14) $end
$upscope $end
$scope module gen_alligned_pattern_detect(15) $end
$upscope $end
$scope module gen_alligned_pattern_detect(16) $end
$upscope $end
$scope module gen_alligned_pattern_detect(17) $end
$upscope $end
$scope module gen_alligned_pattern_detect(18) $end
$upscope $end
$scope module gen_alligned_pattern_detect(19) $end
$upscope $end
$scope module gen_alligned_pattern_detect(20) $end
$upscope $end
$scope module gen_alligned_pattern_detect(21) $end
$upscope $end
$scope module gen_alligned_pattern_detect(22) $end
$upscope $end
$scope module gen_alligned_pattern_detect(23) $end
$upscope $end
$scope module gen_alligned_pattern_detect(24) $end
$upscope $end
$scope module gen_alligned_pattern_detect(25) $end
$upscope $end
$scope module gen_alligned_pattern_detect(26) $end
$upscope $end
$scope module gen_alligned_pattern_detect(27) $end
$upscope $end
$scope module gen_alligned_pattern_detect(28) $end
$upscope $end
$scope module gen_alligned_pattern_detect(29) $end
$upscope $end
$scope module gen_alligned_pattern_detect(30) $end
$upscope $end
$scope module gen_alligned_pattern_detect(31) $end
$upscope $end
$scope module gen_alligned_pattern_detect(32) $end
$upscope $end
$scope module gen_alligned_pattern_detect(33) $end
$upscope $end
$scope module gen_alligned_pattern_detect(34) $end
$upscope $end
$scope module gen_alligned_pattern_detect(35) $end
$upscope $end
$scope module gen_alligned_pattern_detect(36) $end
$upscope $end
$scope module gen_alligned_pattern_detect(37) $end
$upscope $end
$scope module gen_alligned_pattern_detect(38) $end
$upscope $end
$scope module gen_alligned_pattern_detect(39) $end
$upscope $end
$scope module gen_alligned_pattern_detect(40) $end
$upscope $end
$scope module gen_alligned_pattern_detect(41) $end
$upscope $end
$scope module gen_alligned_pattern_detect(42) $end
$upscope $end
$scope module gen_alligned_pattern_detect(43) $end
$upscope $end
$scope module gen_alligned_pattern_detect(44) $end
$upscope $end
$scope module gen_alligned_pattern_detect(45) $end
$upscope $end
$scope module gen_alligned_pattern_detect(46) $end
$upscope $end
$scope module gen_alligned_pattern_detect(47) $end
$upscope $end
$scope module gen_alligned_pattern_detect(48) $end
$upscope $end
$scope module gen_alligned_pattern_detect(49) $end
$upscope $end
$scope module gen_alligned_pattern_detect(50) $end
$upscope $end
$scope module gen_alligned_pattern_detect(51) $end
$upscope $end
$scope module gen_alligned_pattern_detect(52) $end
$upscope $end
$scope module gen_alligned_pattern_detect(53) $end
$upscope $end
$scope module gen_alligned_pattern_detect(54) $end
$upscope $end
$scope module gen_alligned_pattern_detect(55) $end
$upscope $end
$scope module gen_alligned_pattern_detect(56) $end
$upscope $end
$scope module gen_alligned_pattern_detect(57) $end
$upscope $end
$scope module gen_alligned_pattern_detect(58) $end
$upscope $end
$scope module gen_alligned_pattern_detect(59) $end
$upscope $end
$scope module gen_alligned_pattern_detect(60) $end
$upscope $end
$upscope $end
$scope module pattern_detector_stop $end
$var reg 1 $" axis_aclk $end
$var reg 1 %" axis_aresetn $end
$var reg 1 &" s_axis_tvalid $end
$var reg 512 '" s_axis_tdata[511:0] $end
$var reg 1 (" m_axis_tready $end
$var reg 32 )" compare_pattern[31:0] $end
$var reg 1 *" match_out $end
$var reg 1 +" aclk $end
$var reg 1 ," aresetn $end
$var reg 1 -" i_s_axis_tvalid $end
$var reg 512 ." i_s_axis_tdata[511:0] $end
$var reg 1 /" i_m_axis_tready $end
$var reg 32 0" i_pattern[31:0] $end
$var reg 1 1" o_match_out $end
$var reg 61 2" match_accumulator[60:0] $end
$scope module gen_alligned_pattern_detect(0) $end
$upscope $end
$scope module gen_alligned_pattern_detect(1) $end
$upscope $end
$scope module gen_alligned_pattern_detect(2) $end
$upscope $end
$scope module gen_alligned_pattern_detect(3) $end
$upscope $end
$scope module gen_alligned_pattern_detect(4) $end
$upscope $end
$scope module gen_alligned_pattern_detect(5) $end
$upscope $end
$scope module gen_alligned_pattern_detect(6) $end
$upscope $end
$scope module gen_alligned_pattern_detect(7) $end
$upscope $end
$scope module gen_alligned_pattern_detect(8) $end
$upscope $end
$scope module gen_alligned_pattern_detect(9) $end
$upscope $end
$scope module gen_alligned_pattern_detect(10) $end
$upscope $end
$scope module gen_alligned_pattern_detect(11) $end
$upscope $end
$scope module gen_alligned_pattern_detect(12) $end
$upscope $end
$scope module gen_alligned_pattern_detect(13) $end
$upscope $end
$scope module gen_alligned_pattern_detect(14) $end
$upscope $end
$scope module gen_alligned_pattern_detect(15) $end
$upscope $end
$scope module gen_alligned_pattern_detect(16) $end
$upscope $end
$scope module gen_alligned_pattern_detect(17) $end
$upscope $end
$scope module gen_alligned_pattern_detect(18) $end
$upscope $end
$scope module gen_alligned_pattern_detect(19) $end
$upscope $end
$scope module gen_alligned_pattern_detect(20) $end
$upscope $end
$scope module gen_alligned_pattern_detect(21) $end
$upscope $end
$scope module gen_alligned_pattern_detect(22) $end
$upscope $end
$scope module gen_alligned_pattern_detect(23) $end
$upscope $end
$scope module gen_alligned_pattern_detect(24) $end
$upscope $end
$scope module gen_alligned_pattern_detect(25) $end
$upscope $end
$scope module gen_alligned_pattern_detect(26) $end
$upscope $end
$scope module gen_alligned_pattern_detect(27) $end
$upscope $end
$scope module gen_alligned_pattern_detect(28) $end
$upscope $end
$scope module gen_alligned_pattern_detect(29) $end
$upscope $end
$scope module gen_alligned_pattern_detect(30) $end
$upscope $end
$scope module gen_alligned_pattern_detect(31) $end
$upscope $end
$scope module gen_alligned_pattern_detect(32) $end
$upscope $end
$scope module gen_alligned_pattern_detect(33) $end
$upscope $end
$scope module gen_alligned_pattern_detect(34) $end
$upscope $end
$scope module gen_alligned_pattern_detect(35) $end
$upscope $end
$scope module gen_alligned_pattern_detect(36) $end
$upscope $end
$scope module gen_alligned_pattern_detect(37) $end
$upscope $end
$scope module gen_alligned_pattern_detect(38) $end
$upscope $end
$scope module gen_alligned_pattern_detect(39) $end
$upscope $end
$scope module gen_alligned_pattern_detect(40) $end
$upscope $end
$scope module gen_alligned_pattern_detect(41) $end
$upscope $end
$scope module gen_alligned_pattern_detect(42) $end
$upscope $end
$scope module gen_alligned_pattern_detect(43) $end
$upscope $end
$scope module gen_alligned_pattern_detect(44) $end
$upscope $end
$scope module gen_alligned_pattern_detect(45) $end
$upscope $end
$scope module gen_alligned_pattern_detect(46) $end
$upscope $end
$scope module gen_alligned_pattern_detect(47) $end
$upscope $end
$scope module gen_alligned_pattern_detect(48) $end
$upscope $end
$scope module gen_alligned_pattern_detect(49) $end
$upscope $end
$scope module gen_alligned_pattern_detect(50) $end
$upscope $end
$scope module gen_alligned_pattern_detect(51) $end
$upscope $end
$scope module gen_alligned_pattern_detect(52) $end
$upscope $end
$scope module gen_alligned_pattern_detect(53) $end
$upscope $end
$scope module gen_alligned_pattern_detect(54) $end
$upscope $end
$scope module gen_alligned_pattern_detect(55) $end
$upscope $end
$scope module gen_alligned_pattern_detect(56) $end
$upscope $end
$scope module gen_alligned_pattern_detect(57) $end
$upscope $end
$scope module gen_alligned_pattern_detect(58) $end
$upscope $end
$scope module gen_alligned_pattern_detect(59) $end
$upscope $end
$scope module gen_alligned_pattern_detect(60) $end
$upscope $end
$upscope $end
$upscope $end
$upscope $end
$enddefinitions $end
#0
1!
0"
bUUUUU #
bUUU $
U%
U&
bUUUUUUUUUUUUUUUUUUUUUUUUUUUUUUUU '
b1111 (
U)
U*
bUU +
U,
1-
bUUUUU .
bUUU /
U0
U1
bUUUUUUUUUUUUUUUUUUUUUUUUUUUUUUUU 2
bUU 3
U4
15
U6
bUUUUUUUUUUUUUUUUUUUUUUUUUUUUUUUUUUUUUUUUUUUUUUUUUUUUUUUUUUUUUUUUUUUUUUUUUUUUUUUUUUUUUUUUUUUUUUUUUUUUUUUUUUUUUUUUUUUUUUUUUUUUUUUUUUUUUUUUUUUUUUUUUUUUUUUUUUUUUUUUUUUUUUUUUUUUUUUUUUUUUUUUUUUUUUUUUUUUUUUUUUUUUUUUUUUUUUUUUUUUUUUUUUUUUUUUUUUUUUUUUUUUUUUUUUUUUUUUUUUUUUUUUUUUUUUUUUUUUUUUUUUUUUUUUUUUUUUUUUUUUUUUUUUUUUUUUUUUUUUUUUUUUUUUUUUUUUUUUUUUUUUUUUUUUUUUUUUUUUUUUUUUUUUUUUUUUUUUUUUUUUUUUUUUUUUUUUUUUUUUUUUUUUUUUUUUUUUUUUUUUUUUUUUUUUUUUUUUUUUUUUUUUUUUUUUUUUUUUUUUUUUUUUUUUUUUUUUUUUUUUUUUUUUUUUUUUUUUUUUUUUUUUUUUUUUU 7
U8
U9
bUUUUUUUUUUUUUUUUUUUUUUUUUUUUUUUUUUUUUUUUUUUUUUUUUUUUUUUUUUUUUUUUUUUUUUUUUUUUUUUUUUUUUUUUUUUUUUUUUUUUUUUUUUUUUUUUUUUUUUUUUUUUUUUUUUUUUUUUUUUUUUUUUUUUUUUUUUUUUUUUUUUUUUUUUUUUUUUUUUUUUUUUUUUUUUUUUUUUUUUUUUUUUUUUUUUUUUUUUUUUUUUUUUUUUUUUUUUUUUUUUUUUUUUUUUUUUUUUUUUUUUUUUUUUUUUUUUUUUUUUUUUUUUUUUUUUUUUUUUUUUUUUUUUUUUUUUUUUUUUUUUUUUUUUUUUUUUUUUUUUUUUUUUUUUUUUUUUUUUUUUUUUUUUUUUUUUUUUUUUUUUUUUUUUUUUUUUUUUUUUUUUUUUUUUUUUUUUUUUUUUUUUUUUUUUUUUUUUUUUUUUUUUUUUUUUUUUUUUUUUUUUUUUUUUUUUUUUUUUUUUUUUUUUUUUUUUUUUUUUUUUUUUUUUUUUU :
U;
b00000000 <
1=
0>
bUUUUU ?
bUUU @
UA
UB
bUUUUUUUUUUUUUUUUUUUUUUUUUUUUUUUU C
b1111 D
UE
UF
bUU G
UH
1I
bUUUUU J
bUUU K
UL
UM
bUUUUUUUUUUUUUUUUUUUUUUUUUUUUUUUU N
bUU O
UP
1Q
UR
bUUUUUUUUUUUUUUUUUUUUUUUUUUUUUUUUUUUUUUUUUUUUUUUUUUUUUUUUUUUUUUUUUUUUUUUUUUUUUUUUUUUUUUUUUUUUUUUUUUUUUUUUUUUUUUUUUUUUUUUUUUUUUUUUUUUUUUUUUUUUUUUUUUUUUUUUUUUUUUUUUUUUUUUUUUUUUUUUUUUUUUUUUUUUUUUUUUUUUUUUUUUUUUUUUUUUUUUUUUUUUUUUUUUUUUUUUUUUUUUUUUUUUUUUUUUUUUUUUUUUUUUUUUUUUUUUUUUUUUUUUUUUUUUUUUUUUUUUUUUUUUUUUUUUUUUUUUUUUUUUUUUUUUUUUUUUUUUUUUUUUUUUUUUUUUUUUUUUUUUUUUUUUUUUUUUUUUUUUUUUUUUUUUUUUUUUUUUUUUUUUUUUUUUUUUUUUUUUUUUUUUUUUUUUUUUUUUUUUUUUUUUUUUUUUUUUUUUUUUUUUUUUUUUUUUUUUUUUUUUUUUUUUUUUUUUUUUUUUUUUUUUUUUUUUUUU S
UT
UU
bUUUUUUUUUUUUUUUUUUUUUUUUUUUUUUUUUUUUUUUUUUUUUUUUUUUUUUUUUUUUUUUUUUUUUUUUUUUUUUUUUUUUUUUUUUUUUUUUUUUUUUUUUUUUUUUUUUUUUUUUUUUUUUUUUUUUUUUUUUUUUUUUUUUUUUUUUUUUUUUUUUUUUUUUUUUUUUUUUUUUUUUUUUUUUUUUUUUUUUUUUUUUUUUUUUUUUUUUUUUUUUUUUUUUUUUUUUUUUUUUUUUUUUUUUUUUUUUUUUUUUUUUUUUUUUUUUUUUUUUUUUUUUUUUUUUUUUUUUUUUUUUUUUUUUUUUUUUUUUUUUUUUUUUUUUUUUUUUUUUUUUUUUUUUUUUUUUUUUUUUUUUUUUUUUUUUUUUUUUUUUUUUUUUUUUUUUUUUUUUUUUUUUUUUUUUUUUUUUUUUUUUUUUUUUUUUUUUUUUUUUUUUUUUUUUUUUUUUUUUUUUUUUUUUUUUUUUUUUUUUUUUUUUUUUUUUUUUUUUUUUUUUUUUUUUUU V
UW
bUUUUU X
UY
UZ
bUU [
U\
bUUUUU ]
U^
bUUUUUUUUUUUUUUUUUUUUUUUUUUUUUUUU _
bUU `
Ua
bUUUUUUUUUUUUUUUUUUUUUUUUUUUUUUUU b
bUUUUUUUUUUUUUUUUUUUUUUUUUUUUUUUU c
bUUUUUUUUUUUUUUUUUUUUUUUUUUUUUUUU d
bUUUUUUUUUUUUUUUUUUUUUUUUUUUUUUUU e
bUUUUUUUUUUUUUUUUUUUUUUUUUUUUUUUU f
bUUUUUUUUUUUUUUUUUUUUUUUUUUUUUUUU g
bUUUUUUUUUUUUUUUUUUUUUUUUUUUUUUUU h
bUUUUUUUUUUUUUUUUUUUUUUUUUUUUUUUU i
Uj
Uk
b00000000000000000000000000000000 l
b10000000000000000000000000000000 m
Un
Uo
Up
Uq
1r
0s
Ut
bUUUUUUUUUUUUUUUUUUUUUUUUUUUUUUUUUUUUUUUUUUUUUUUUUUUUUUUUUUUUUUUUUUUUUUUUUUUUUUUUUUUUUUUUUUUUUUUUUUUUUUUUUUUUUUUUUUUUUUUUUUUUUUUUUUUUUUUUUUUUUUUUUUUUUUUUUUUUUUUUUUUUUUUUUUUUUUUUUUUUUUUUUUUUUUUUUUUUUUUUUUUUUUUUUUUUUUUUUUUUUUUUUUUUUUUUUUUUUUUUUUUUUUUUUUUUUUUUUUUUUUUUUUUUUUUUUUUUUUUUUUUUUUUUUUUUUUUUUUUUUUUUUUUUUUUUUUUUUUUUUUUUUUUUUUUUUUUUUUUUUUUUUUUUUUUUUUUUUUUUUUUUUUUUUUUUUUUUUUUUUUUUUUUUUUUUUUUUUUUUUUUUUUUUUUUUUUUUUUUUUUUUUUUUUUUUUUUUUUUUUUUUUUUUUUUUUUUUUUUUUUUUUUUUUUUUUUUUUUUUUUUUUUUUUUUUUUUUUUUUUUUUUUUUUUUU u
Uv
bUUUUUUUUUUUUUUUUUUUUUUUUUUUUUUUU w
Ux
1y
0z
U{
bUUUUUUUUUUUUUUUUUUUUUUUUUUUUUUUUUUUUUUUUUUUUUUUUUUUUUUUUUUUUUUUUUUUUUUUUUUUUUUUUUUUUUUUUUUUUUUUUUUUUUUUUUUUUUUUUUUUUUUUUUUUUUUUUUUUUUUUUUUUUUUUUUUUUUUUUUUUUUUUUUUUUUUUUUUUUUUUUUUUUUUUUUUUUUUUUUUUUUUUUUUUUUUUUUUUUUUUUUUUUUUUUUUUUUUUUUUUUUUUUUUUUUUUUUUUUUUUUUUUUUUUUUUUUUUUUUUUUUUUUUUUUUUUUUUUUUUUUUUUUUUUUUUUUUUUUUUUUUUUUUUUUUUUUUUUUUUUUUUUUUUUUUUUUUUUUUUUUUUUUUUUUUUUUUUUUUUUUUUUUUUUUUUUUUUUUUUUUUUUUUUUUUUUUUUUUUUUUUUUUUUUUUUUUUUUUUUUUUUUUUUUUUUUUUUUUUUUUUUUUUUUUUUUUUUUUUUUUUUUUUUUUUUUUUUUUUUUUUUUUUUUUUUUUUUUU |
U}
bUUUUUUUUUUUUUUUUUUUUUUUUUUUUUUUU !"
U""
bUUUUUUUUUUUUUUUUUUUUUUUUUUUUUUUUUUUUUUUUUUUUUUUUUUUUUUUUUUUUU #"
1$"
0%"
U&"
bUUUUUUUUUUUUUUUUUUUUUUUUUUUUUUUUUUUUUUUUUUUUUUUUUUUUUUUUUUUUUUUUUUUUUUUUUUUUUUUUUUUUUUUUUUUUUUUUUUUUUUUUUUUUUUUUUUUUUUUUUUUUUUUUUUUUUUUUUUUUUUUUUUUUUUUUUUUUUUUUUUUUUUUUUUUUUUUUUUUUUUUUUUUUUUUUUUUUUUUUUUUUUUUUUUUUUUUUUUUUUUUUUUUUUUUUUUUUUUUUUUUUUUUUUUUUUUUUUUUUUUUUUUUUUUUUUUUUUUUUUUUUUUUUUUUUUUUUUUUUUUUUUUUUUUUUUUUUUUUUUUUUUUUUUUUUUUUUUUUUUUUUUUUUUUUUUUUUUUUUUUUUUUUUUUUUUUUUUUUUUUUUUUUUUUUUUUUUUUUUUUUUUUUUUUUUUUUUUUUUUUUUUUUUUUUUUUUUUUUUUUUUUUUUUUUUUUUUUUUUUUUUUUUUUUUUUUUUUUUUUUUUUUUUUUUUUUUUUUUUUUUUUUUUUUUU '"
U("
bUUUUUUUUUUUUUUUUUUUUUUUUUUUUUUUU )"
U*"
1+"
0,"
U-"
bUUUUUUUUUUUUUUUUUUUUUUUUUUUUUUUUUUUUUUUUUUUUUUUUUUUUUUUUUUUUUUUUUUUUUUUUUUUUUUUUUUUUUUUUUUUUUUUUUUUUUUUUUUUUUUUUUUUUUUUUUUUUUUUUUUUUUUUUUUUUUUUUUUUUUUUUUUUUUUUUUUUUUUUUUUUUUUUUUUUUUUUUUUUUUUUUUUUUUUUUUUUUUUUUUUUUUUUUUUUUUUUUUUUUUUUUUUUUUUUUUUUUUUUUUUUUUUUUUUUUUUUUUUUUUUUUUUUUUUUUUUUUUUUUUUUUUUUUUUUUUUUUUUUUUUUUUUUUUUUUUUUUUUUUUUUUUUUUUUUUUUUUUUUUUUUUUUUUUUUUUUUUUUUUUUUUUUUUUUUUUUUUUUUUUUUUUUUUUUUUUUUUUUUUUUUUUUUUUUUUUUUUUUUUUUUUUUUUUUUUUUUUUUUUUUUUUUUUUUUUUUUUUUUUUUUUUUUUUUUUUUUUUUUUUUUUUUUUUUUUUUUUUUUUUUUU ."
U/"
bUUUUUUUUUUUUUUUUUUUUUUUUUUUUUUUU 0"
U1"
bUUUUUUUUUUUUUUUUUUUUUUUUUUUUUUUUUUUUUUUUUUUUUUUUUUUUUUUUUUUUU 2"
#2500000
0!
0=
0r
0y
0$"
0+"
#5000000
1!
b00000 #
0%
0&
b00000000000000000000000000000000 '
0)
0*
b00 +
0,
b00000 .
00
01
b00000000000000000000000000000000 2
b00 3
04
06
b00000000000000000000000000000000000000000000000000000000000000000000000000000000000000000000000000000000000000000000000000000000000000000000000000000000000000000000000000000000000000000000000000000000000000000000000000000000000000000000000000000000000000000000000000000000000000000000000000000000000000000000000000000000000000000000000000000000000000000000000000000000000000000000000000000000000000000000000000000000000000000000000000000000000000000000000000000000000000000000000000000000000000000000000000000000 7
18
09
b00000000000000000000000000000000000000000000000000000000000000000000000000000000000000000000000000000000000000000000000000000000000000000000000000000000000000000000000000000000000000000000000000000000000000000000000000000000000000000000000000000000000000000000000000000000000000000000000000000000000000000000000000000000000000000000000000000000000000000000000000000000000000000000000000000000000000000000000000000000000000000000000000000000000000000000000000000000000000000000000000000000000000000000000000000000 :
1;
b00000001 <
1=
b00000 ?
0A
0B
b00000000000000000000000000000000 C
0E
0F
b00 G
0H
b00000 J
0L
0M
b00000000000000000000000000000000 N
b00 O
0P
0R
b00000000000000000000000000000000000000000000000000000000000000000000000000000000000000000000000000000000000000000000000000000000000000000000000000000000000000000000000000000000000000000000000000000000000000000000000000000000000000000000000000000000000000000000000000000000000000000000000000000000000000000000000000000000000000000000000000000000000000000000000000000000000000000000000000000000000000000000000000000000000000000000000000000000000000000000000000000000000000000000000000000000000000000000000000000000 S
1T
0U
b00000000000000000000000000000000000000000000000000000000000000000000000000000000000000000000000000000000000000000000000000000000000000000000000000000000000000000000000000000000000000000000000000000000000000000000000000000000000000000000000000000000000000000000000000000000000000000000000000000000000000000000000000000000000000000000000000000000000000000000000000000000000000000000000000000000000000000000000000000000000000000000000000000000000000000000000000000000000000000000000000000000000000000000000000000000 V
1W
b00000 X
0Y
0Z
b00 [
0\
b11111 ]
0^
b00000000000000000000000000000000 _
b00 `
0a
b00000000000000000000000000000000 b
b00000000000000000000000000000000 c
b00000000000000000000000000000000 d
b00000000000000000000000000000000 e
b00000000000000000000000000000000 f
b00000000000000000000000000000000 g
b00000000000000000000000000000000 h
b00000000000000000000000000000000 i
0j
0k
1n
0o
0p
0q
1r
0t
b00000000000000000000000000000000000000000000000000000000000000000000000000000000000000000000000000000000000000000000000000000000000000000000000000000000000000000000000000000000000000000000000000000000000000000000000000000000000000000000000000000000000000000000000000000000000000000000000000000000000000000000000000000000000000000000000000000000000000000000000000000000000000000000000000000000000000000000000000000000000000000000000000000000000000000000000000000000000000000000000000000000000000000000000000000000 u
1v
b00000000000000000000000000000000 w
0x
1y
0{
b00000000000000000000000000000000000000000000000000000000000000000000000000000000000000000000000000000000000000000000000000000000000000000000000000000000000000000000000000000000000000000000000000000000000000000000000000000000000000000000000000000000000000000000000000000000000000000000000000000000000000000000000000000000000000000000000000000000000000000000000000000000000000000000000000000000000000000000000000000000000000000000000000000000000000000000000000000000000000000000000000000000000000000000000000000000 |
1}
b00000000000000000000000000000000 !"
0""
b0000000000000000000000000000000000000000000000000000000000000 #"
1$"
0&"
b00000000000000000000000000000000000000000000000000000000000000000000000000000000000000000000000000000000000000000000000000000000000000000000000000000000000000000000000000000000000000000000000000000000000000000000000000000000000000000000000000000000000000000000000000000000000000000000000000000000000000000000000000000000000000000000000000000000000000000000000000000000000000000000000000000000000000000000000000000000000000000000000000000000000000000000000000000000000000000000000000000000000000000000000000000000 '"
1("
b00000000000000000000000000000000 )"
0*"
1+"
0-"
b00000000000000000000000000000000000000000000000000000000000000000000000000000000000000000000000000000000000000000000000000000000000000000000000000000000000000000000000000000000000000000000000000000000000000000000000000000000000000000000000000000000000000000000000000000000000000000000000000000000000000000000000000000000000000000000000000000000000000000000000000000000000000000000000000000000000000000000000000000000000000000000000000000000000000000000000000000000000000000000000000000000000000000000000000000000 ."
1/"
b00000000000000000000000000000000 0"
01"
b0000000000000000000000000000000000000000000000000000000000000 2"
#6250000
1"
1>
1s
1z
1%"
1,"
#7500000
0!
0=
0r
0y
0$"
0+"
#10000000
1!
b00000010 <
1=
b00000000000000000000000000000001 b
1r
1y
1$"
1+"
#12500000
0!
0=
0r
0y
0$"
0+"
#15000000
1!
b00000011 <
1=
b00000000000000000000000000000010 b
1r
1y
1$"
1+"
#17500000
0!
0=
0r
0y
0$"
0+"
#20000000
1!
10
b00000100 <
1=
1L
b00000000000000000000000000000011 b
1r
1y
1$"
1+"
#22500000
0!
0=
0r
0y
0$"
0+"
#25000000
1!
11
b00000101 <
1=
1M
b00000 ]
1^
b00000000000000000000000000000100 b
1j
b00000000000000000000000000000100 l
1r
1y
1$"
1+"
#27500000
0!
0=
0r
0y
0$"
0+"
#30000000
1!
00
01
b00000000000000000000000000000100 2
14
b00000110 <
1=
0L
0M
b00000000000000000000000000000100 N
1P
0^
b00000000000000000000000000000100 _
1a
b00000000000000000000000000000101 b
0j
b00000000000000000000000000000101 l
1r
1y
1$"
1+"
#32500000
0!
0=
0r
0y
0$"
0+"
#35000000
1!
04
b00000111 <
1=
0P
0a
b00000000000000000000000000000110 b
b00000000000000000000000000000110 l
1r
1y
1$"
1+"
#37500000
0!
0=
0r
0y
0$"
0+"
#40000000
1!
b01000 #
1%
b11011110101011011011111011101111 '
1)
b00001000 <
1=
b01000 ?
1A
b11011110101011011011111011101111 C
1E
b00000000000000000000000000000111 b
b00000000000000000000000000000111 l
1r
1y
1$"
1+"
#42500000
0!
0=
0r
0y
0$"
0+"
#45000000
1!
1&
1*
b00001001 <
1=
1B
1F
b01000 X
1Y
1Z
b00000000000000000000000000001000 b
1k
b00000000000000000000000000001000 l
0n
1r
1y
1$"
1+"
#47500000
0!
0=
0r
0y
0$"
0+"
#50000000
1!
b00000 #
0%
0&
b00000000000000000000000000000000 '
0)
0*
1,
b00001010 <
1=
b00000 ?
0A
0B
b00000000000000000000000000000000 C
0E
0F
1H
0Y
0Z
1\
b11011110101011011011111011101111 d
0k
1r
b11011110101011011011111011101111 w
1y
b11011110101011011011111011101111 !"
1$"
1+"
#52500000
0!
0=
0r
0y
0$"
0+"
#55000000
1!
0,
b00001011 <
1=
0H
0\
b00000000000000000000000000001001 b
b00000000000000000000000000001001 l
1n
1r
1y
1$"
1+"
#57500000
0!
0=
0r
0y
0$"
0+"
#60000000
1!
b01100 #
1%
b11011110101011011011111011101111 '
1)
b00001100 <
1=
b01100 ?
1A
b11011110101011011011111011101111 C
1E
b00000000000000000000000000001010 b
b00000000000000000000000000001010 l
1r
1y
1$"
1+"
#62500000
0!
0=
0r
0y
0$"
0+"
#65000000
1!
1&
1*
b00001101 <
1=
1B
1F
b01100 X
1Y
1Z
b00000000000000000000000000001011 b
1k
b00000000000000000000000000001011 l
0n
1r
1y
1$"
1+"
#67500000
0!
0=
0r
0y
0$"
0+"
#70000000
1!
b00000 #
0%
0&
b00000000000000000000000000000000 '
0)
0*
1,
b00001110 <
1=
b00000 ?
0A
0B
b00000000000000000000000000000000 C
0E
0F
1H
0Y
0Z
1\
b11011110101011011011111011101111 e
0k
1r
1y
1$"
b11011110101011011011111011101111 )"
1+"
b11011110101011011011111011101111 0"
#72500000
0!
0=
0r
0y
0$"
0+"
