ghdl/pattern-trigger/event-counter/wave.vcd
$date
  Thu May 11 15:04:23 2023
$end
$version
  GHDL v0
$end
$timescale
  1 fs
$end
$scope module standard $end
$upscope $end
$scope module std_logic_1164 $end
$upscope $end
$scope module numeric_std $end
$upscope $end
$scope module tb_myip $end
$var reg 1 ! clk $end
$var reg 1 " rst_n $end
$var reg 5 # axi_awaddr[4:0] $end
$var reg 3 $ axi_awprot[2:0] $end
$var reg 1 % axi_awvalid $end
$var reg 1 & axi_awready $end
$var reg 32 ' axi_wdata[31:0] $end
$var reg 4 ( axi_wstrb[3:0] $end
$var reg 1 ) axi_wvalid $end
$var reg 1 * axi_wready $end
$var reg 2 + axi_bresp[1:0] $end
$var reg 1 , axi_bvalid $end
$var reg 1 - axi_bready $end
$var reg 5 . axi_araddr[4:0] $end
$var reg 3 / axi_arprot[2:0] $end
$var reg 1 0 axi_arvalid $end
$var reg 1 1 axi_arready $end
$var reg 32 2 axi_rdata[31:0] $end
$var reg 2 3 axi_rresp[1:0] $end
$var reg 1 4 axi_rvalid $end
$var reg 1 5 axi_rready $end
$var reg 1 6 trg_start $end
$var reg 1 7 trg_stop $end
$var reg 8 8 clk_count[7:0] $end
$scope module myip_inst $end
$var reg 1 9 s_axi_aclk $end
$var reg 1 : s_axi_aresetn $end
$var reg 5 ; s_axi_awaddr[4:0] $end
$var reg 3 < s_axi_awprot[2:0] $end
$var reg 1 = s_axi_awvalid $end
$var reg 1 > s_axi_awready $end
$var reg 32 ? s_axi_wdata[31:0] $end
$var reg 4 @ s_axi_wstrb[3:0] $end
$var reg 1 A s_axi_wvalid $end
$var reg 1 B s_axi_wready $end
$var reg 2 C s_axi_bresp[1:0] $end
$var reg 1 D s_axi_bvalid $end
$var reg 1 E s_axi_bready $end
$var reg 5 F s_axi_araddr[4:0] $end
$var reg 3 G s_axi_arprot[2:0] $end
$var reg 1 H s_axi_arvalid $end
$var reg 1 I s_axi_arready $end
$var reg 32 J s_axi_rdata[31:0] $end
$var reg 2 K s_axi_rresp[1:0] $end
$var reg 1 L s_axi_rvalid $end
$var reg 1 M s_axi_rready $end
$var reg 1 N trg_a $end
$var reg 1 O trg_y $end
$var reg 5 P axi_awaddr[4:0] $end
$var reg 1 Q axi_awready $end
$var reg 1 R axi_wready $end
$var reg 2 S axi_bresp[1:0] $end
$var reg 1 T axi_bvalid $end
$var reg 5 U axi_araddr[4:0] $end
$var reg 1 V axi_arready $end
$var reg 32 W axi_rdata[31:0] $end
$var reg 2 X axi_rresp[1:0] $end
$var reg 1 Y axi_rvalid $end
$var reg 32 Z slv_reg0[31:0] $end
$var reg 32 [ slv_reg1[31:0] $end
$var reg 32 \ slv_reg2[31:0] $end
$var reg 32 ] slv_reg3[31:0] $end
$var reg 32 ^ slv_reg4[31:0] $end
$var reg 32 _ slv_reg5[31:0] $end
$var reg 32 ` slv_reg6[31:0] $end
$var reg 32 a slv_reg7[31:0] $end
$var reg 1 b slv_reg_rden $end
$var reg 1 c slv_reg_wren $end
$var reg 32 d reg_data_out[31:0] $end
$var integer 32 e byte_index $end
$var reg 1 f aw_en $end
$var reg 1 g count_en $end
$var reg 1 h trg_start $end
$var reg 1 i trg_stop $end
$var reg 1 j trg_a_async $end
$var reg 1 k trg_a_meta $end
$var reg 1 l trg_a_reg $end
$var reg 1 m trg_y_async $end
$var reg 1 n trg_y_meta $end
$var reg 1 o trg_y_reg $end
$upscope $end
$upscope $end
$enddefinitions $end
#0
1!
0"
bUUUUU #
bUUU $
U%
U&
bUUUUUUUUUUUUUUUUUUUUUUUUUUUUUUUU '
b1111 (
U)
U*
bUU +
U,
1-
bUUUUU .
bUUU /
U0
U1
bUUUUUUUUUUUUUUUUUUUUUUUUUUUUUUUU 2
bUU 3
U4
15
U6
U7
b00000000 8
19
0:
bUUUUU ;
bUUU <
U=
U>
bUUUUUUUUUUUUUUUUUUUUUUUUUUUUUUUU ?
b1111 @
UA
UB
bUU C
UD
1E
bUUUUU F
bUUU G
UH
UI
bUUUUUUUUUUUUUUUUUUUUUUUUUUUUUUUU J
bUU K
UL
1M
UN
UO
bUUUUU P
UQ
UR
bUU S
UT
bUUUUU U
UV
bUUUUUUUUUUUUUUUUUUUUUUUUUUUUUUUU W
bUU X
UY
bUUUUUUUUUUUUUUUUUUUUUUUUUUUUUUUU Z
bUUUUUUUUUUUUUUUUUUUUUUUUUUUUUUUU [
bUUUUUUUUUUUUUUUUUUUUUUUUUUUUUUUU \
bUUUUUUUUUUUUUUUUUUUUUUUUUUUUUUUU ]
bUUUUUUUUUUUUUUUUUUUUUUUUUUUUUUUU ^
bUUUUUUUUUUUUUUUUUUUUUUUUUUUUUUUU _
bUUUUUUUUUUUUUUUUUUUUUUUUUUUUUUUU `
bUUUUUUUUUUUUUUUUUUUUUUUUUUUUUUUU a
Ub
Uc
b00000000000000000000000000000000 d
b10000000000000000000000000000000 e
Uf
Ug
Uh
Ui
Uj
Uk
Ul
Um
Un
Uo
#2500000
0!
09
#5000000
1!
b00000 #
0%
0&
b00000000000000000000000000000000 '
0)
0*
b00 +
0,
b00000 .
00
01
b00000000000000000000000000000000 2
b00 3
04
06
07
b00000001 8
19
b00000 ;
0=
0>
b00000000000000000000000000000000 ?
0A
0B
b00 C
0D
b00000 F
0H
0I
b00000000000000000000000000000000 J
b00 K
0L
0N
0O
b00000 P
0Q
0R
b00 S
0T
b11111 U
0V
b00000000000000000000000000000000 W
b00 X
0Y
b00000000000000000000000000000000 Z
b00000000000000000000000000000000 [
b00000000000000000000000000000000 \
b00000000000000000000000000000000 ]
b00000000000000000000000000000000 ^
b00000000000000000000000000000000 _
b00000000000000000000000000000000 `
b00000000000000000000000000000000 a
0b
0c
1f
0g
0h
0i
0j
0k
0l
0m
0n
0o
#6250000
1"
1:
#7500000
0!
09
#10000000
1!
b00000010 8
19
#12500000
0!
09
#15000000
1!
b00000011 8
19
#17500000
0!
09
#20000000
1!
10
b00000100 8
19
1H
#22500000
0!
09
#25000000
1!
11
b00000101 8
19
1I
b00000 U
1V
1b
#27500000
0!
09
#30000000
1!
00
01
14
b00000110 8
19
0H
0I
1L
0V
1Y
0b
#32500000
0!
09
#35000000
1!
04
b00000111 8
19
0L
0Y
#37500000
0!
09
#40000000
1!
b00001000 8
19
#42500000
0!
09
#45000000
1!
b00001001 8
19
#47500000
0!
09
#50000000
1!
b00001010 8
19
#52500000
0!
09
#55000000
1!
b00001011 8
19
#57500000
0!
09
#60000000
1!
b00001100 8
19
#62500000
0!
09
#65000000
1!
b00001101 8
19
#67500000
0!
09
#70000000
1!
b00001110 8
19
#72500000
0!
09
#75000000
1!
b00001111 8
19
#77500000
0!
09
#80000000
1!
1%
1)
b00010000 8
19
1=
1A
#82500000
0!
09
#85000000
1!
1&
1*
b00010001 8
19
1>
1B
1Q
1R
1c
0f
#87500000
0!
09
#90000000
1!
0%
0&
0)
0*
1,
b00010010 8
19
0=
0>
0A
0B
1D
0Q
0R
1T
0c
#92500000
0!
09
#95000000
1!
0,
16
b00010011 8
19
0D
1N
0T
1f
1j
#97500000
0!
09
#100000000
1!
06
b00010100 8
19
0N
0j
1k
#102500000
0!
09
#105000000
1!
b00010101 8
19
1h
0k
1l
#107500000
0!
09
#110000000
1!
b00010110 8
19
1g
0h
0l
#112500000
0!
09
#115000000
1!
b00010111 8
19
b00000000000000000000000000000001 Z
b00000000000000000000000000000001 d
#117500000
0!
09
#120000000
1!
b00011000 8
19
b00000000000000000000000000000010 Z
b00000000000000000000000000000010 d
#122500000
0!
09
#125000000
1!
b00011001 8
19
b00000000000000000000000000000011 Z
b00000000000000000000000000000011 d
#127500000
0!
09
#130000000
1!
b00011010 8
19
b00000000000000000000000000000100 Z
b00000000000000000000000000000100 d
#132500000
0!
09
#135000000
1!
b00011011 8
19
b00000000000000000000000000000101 Z
b00000000000000000000000000000101 d
#137500000
0!
09
#140000000
1!
b00011100 8
19
b00000000000000000000000000000110 Z
b00000000000000000000000000000110 d
#142500000
0!
09
#145000000
1!
17
b00011101 8
19
1O
b00000000000000000000000000000111 Z
b00000000000000000000000000000111 d
1m
#147500000
0!
09
#150000000
1!
07
b00011110 8
19
0O
b00000000000000000000000000001000 Z
b00000000000000000000000000001000 d
0m
1n
#152500000
0!
09
#155000000
1!
b00011111 8
19
b00000000000000000000000000001001 Z
b00000000000000000000000000001001 d
1i
0n
1o
#157500000
0!
09
#160000000
1!
10
b00100000 8
19
1H
b00000000000000000000000000001010 Z
b00000000000000000000000000001010 d
0g
0i
0o
#162500000
0!
09
#165000000
1!
11
b00100001 8
19
1I
1V
1b
#167500000
0!
09
#170000000
1!
00
01
b00000000000000000000000000001010 2
14
b00100010 8
19
0H
0I
b00000000000000000000000000001010 J
1L
0V
b00000000000000000000000000001010 W
1Y
0b
#172500000
0!
09
#175000000
1!
04
b00100011 8
19
0L
0Y
#177500000
0!
09
#180000000
1!
b00100100 8
19
#182500000
0!
09
#185000000
1!
b00100101 8
19
#187500000
0!
09
#190000000
1!
b00100110 8
19
#192500000
0!
09
#195000000
1!
b00100111 8
19
#197500000
0!
09
#200000000
1!
b00101000 8
19
#202500000
0!
09
#205000000
1!
b00101001 8
19
#207500000
0!
09
#210000000
1!
b00101010 8
19
#212500000
0!
09
#215000000
1!
b00101011 8
19
#217500000
0!
09
#220000000
1!
b00101100 8
19
#222500000
0!
09
#225000000
1!
b00101101 8
19
#227500000
0!
09
#230000000
1!
b00101110 8
19
#232500000
0!
09
#235000000
1!
b00101111 8
19
#237500000
0!
09
#240000000
1!
b00110000 8
19
#242500000
0!
09
#245000000
1!
b00110001 8
19
#247500000
0!
09
#250000000
1!
b00110010 8
19
#252500000
0!
09
#255000000
1!
10
b00110011 8
19
1H
#257500000
0!
09
#260000000
1!
11
b00110100 8
19
1I
1V
1b
#262500000
0!
09
#265000000
1!
00
01
14
b00110101 8
19
0H
0I
1L
0V
1Y
0b
#267500000
0!
09
#270000000
1!
04
b00110110 8
19
0L
0Y
#272500000
0!
09
#275000000
1!
b00110111 8
19
#277500000
0!
09
#280000000
1!
b00111000 8
19
#282500000
0!
09
#285000000
1!
b00111001 8
19
#287500000
0!
09
#290000000
1!
b00111010 8
19
#292500000
0!
09
#295000000
1!
b00111011 8
19
#297500000
0!
09
#300000000
1!
b00111100 8
19
#302500000
0!
09
#305000000
1!
b00111101 8
19
#307500000
0!
09
#310000000
1!
b00111110 8
19
#312500000
0!
09
#315000000
1!
b00111111 8
19
#317500000
0!
09
#320000000
1!
b01000000 8
19
#322500000
0!
09
#325000000
1!
b01000001 8
19
#327500000
0!
09
#330000000
1!
b01000010 8
19
#332500000
0!
09
#335000000
1!
b01000011 8
19
#337500000
0!
09
#340000000
1!
b01000100 8
19
#342500000
0!
09
#345000000
1!
b01000101 8
19
#347500000
0!
09
#350000000
1!
b01000110 8
19
#352500000
0!
09
#355000000
1!
b01000111 8
19
#357500000
0!
09
#360000000
1!
b01001000 8
19
#362500000
0!
09
#365000000
1!
b01001001 8
19
#367500000
0!
09
#370000000
1!
b01001010 8
19
#372500000
0!
09
#375000000
1!
b01001011 8
19
#377500000
0!
09
#380000000
1!
b01001100 8
19
#382500000
0!
09
#385000000
1!
b01001101 8
19
#387500000
0!
09
#390000000
1!
b01001110 8
19
#392500000
0!
09
#395000000
1!
b01001111 8
19
#397500000
0!
09
#400000000
1!
b01010000 8
19
#402500000
0!
09
#405000000
1!
b01010001 8
19
#407500000
0!
09
#410000000
1!
b01010010 8
19
#412500000
0!
09
#415000000
1!
b01010011 8
19
#417500000
0!
09
#420000000
1!
b01010100 8
19
#422500000
0!
09
#425000000
1!
b01010101 8
19
#427500000
0!
09
#430000000
1!
b01010110 8
19
#432500000
0!
09
#435000000
1!
b01010111 8
19
#437500000
0!
09
#440000000
1!
b01011000 8
19
#442500000
0!
09
#445000000
1!
b01011001 8
19
#447500000
0!
09
#450000000
1!
b01011010 8
19
#452500000
0!
09
#455000000
1!
b01011011 8
19
#457500000
0!
09
#460000000
1!
b01011100 8
19
#462500000
0!
09
#465000000
1!
b01011101 8
19
#467500000
0!
09
#470000000
1!
b01011110 8
19
#472500000
0!
09
#475000000
1!
b01011111 8
19
#477500000
0!
09
#480000000
1!
b01100000 8
19
#482500000
0!
09
#485000000
1!
b01100001 8
19
#487500000
0!
09
#490000000
1!
b01100010 8
19
#492500000
0!
09
#495000000
1!
b01100011 8
19
#497500000
0!
09
#500000000
1!
b01100100 8
19
#502500000
0!
09
#505000000
1!
b01100101 8
19
#507500000
0!
09
#510000000
1!
b01100110 8
19
#512500000
0!
09
#515000000
1!
b01100111 8
19
#517500000
0!
09
#520000000
1!
b01101000 8
19
#522500000
0!
09
#525000000
1!
b01101001 8
19
#527500000
0!
09
#530000000
1!
b01101010 8
19
#532500000
0!
09
#535000000
1!
b01101011 8
19
#537500000
0!
09
#540000000
1!
b01101100 8
19
#542500000
0!
09
#545000000
1!
b01101101 8
19
#547500000
0!
09
#550000000
1!
b01101110 8
19
#552500000
0!
09
#555000000
1!
b01101111 8
19
#557500000
0!
09
#560000000
1!
b01110000 8
19
#562500000
0!
09
#565000000
1!
b01110001 8
19
#567500000
0!
09
#570000000
1!
b01110010 8
19
#572500000
0!
09
#575000000
1!
b01110011 8
19
#577500000
0!
09
#580000000
1!
b01110100 8
19
#582500000
0!
09
#585000000
1!
b01110101 8
19
#587500000
0!
09
#590000000
1!
b01110110 8
19
#592500000
0!
09
#595000000
1!
b01110111 8
19
#597500000
0!
09
#600000000
1!
b01111000 8
19
#602500000
0!
09
#605000000
1!
b01111001 8
19
#607500000
0!
09
#610000000
1!
b01111010 8
19
#612500000
0!
09
#615000000
1!
b01111011 8
19
#617500000
0!
09
#620000000
1!
b01111100 8
19
#622500000
0!
09
#625000000
1!
b01111101 8
19
#627500000
0!
09
#630000000
1!
b01111110 8
19
#632500000
0!
09
#635000000
1!
b01111111 8
19
#637500000
0!
09
#640000000
1!
b10000000 8
19
#642500000
0!
09
#645000000
1!
b10000001 8
19
#647500000
0!
09
#650000000
1!
b10000010 8
19
#652500000
0!
09
#655000000
1!
b10000011 8
19
#657500000
0!
09
#660000000
1!
b10000100 8
19
#662500000
0!
09
#665000000
1!
b10000101 8
19
#667500000
0!
09
#670000000
1!
b10000110 8
19
#672500000
0!
09
#675000000
1!
b10000111 8
19
#677500000
0!
09
#680000000
1!
b10001000 8
19
#682500000
0!
09
#685000000
1!
b10001001 8
19
#687500000
0!
09
#690000000
1!
b10001010 8
19
#692500000
0!
09
#695000000
1!
b10001011 8
19
#697500000
0!
09
#700000000
1!
b10001100 8
19
#702500000
0!
09
#705000000
1!
b10001101 8
19
#707500000
0!
09
#710000000
1!
b10001110 8
19
#712500000
0!
09
#715000000
1!
b10001111 8
19
#717500000
0!
09
#720000000
1!
b10010000 8
19
#722500000
0!
09
#725000000
1!
b10010001 8
19
#727500000
0!
09
#730000000
1!
b10010010 8
19
#732500000
0!
09
#735000000
1!
b10010011 8
19
#737500000
0!
09
#740000000
1!
b10010100 8
19
#742500000
0!
09
#745000000
1!
b10010101 8
19
#747500000
0!
09
#750000000
1!
b10010110 8
19
#752500000
0!
09
#755000000
1!
b10010111 8
19
#757500000
0!
09
#760000000
1!
b10011000 8
19
#762500000
0!
09
#765000000
1!
b10011001 8
19
#767500000
0!
09
#770000000
1!
b10011010 8
19
#772500000
0!
09
#775000000
1!
b10011011 8
19
#777500000
0!
09
#780000000
1!
b10011100 8
19
#782500000
0!
09
#785000000
1!
b10011101 8
19
#787500000
0!
09
#790000000
1!
b10011110 8
19
#792500000
0!
09
#795000000
1!
b10011111 8
19
#797500000
0!
09
#800000000
1!
b10100000 8
19
#802500000
0!
09
#805000000
1!
b10100001 8
19
#807500000
0!
09
#810000000
1!
b10100010 8
19
#812500000
0!
09
#815000000
1!
b10100011 8
19
#817500000
0!
09
#820000000
1!
b10100100 8
19
#822500000
0!
09
#825000000
1!
b10100101 8
19
#827500000
0!
09
#830000000
1!
b10100110 8
19
#832500000
0!
09
#835000000
1!
b10100111 8
19
#837500000
0!
09
#840000000
1!
b10101000 8
19
#842500000
0!
09
#845000000
1!
b10101001 8
19
#847500000
0!
09
#850000000
1!
b10101010 8
19
#852500000
0!
09
#855000000
1!
b10101011 8
19
#857500000
0!
09
#860000000
1!
b10101100 8
19
#862500000
0!
09
#865000000
1!
b10101101 8
19
#867500000
0!
09
#870000000
1!
b10101110 8
19
#872500000
0!
09
#875000000
1!
b10101111 8
19
#877500000
0!
09
#880000000
1!
b10110000 8
19
#882500000
0!
09
#885000000
1!
b10110001 8
19
#887500000
0!
09
#890000000
1!
b10110010 8
19
#892500000
0!
09
#895000000
1!
b10110011 8
19
#897500000
0!
09
#900000000
1!
b10110100 8
19
#902500000
0!
09
#905000000
1!
b10110101 8
19
#907500000
0!
09
#910000000
1!
b10110110 8
19
#912500000
0!
09
#915000000
1!
b10110111 8
19
#917500000
0!
09
#920000000
1!
b10111000 8
19
#922500000
0!
09
#925000000
1!
b10111001 8
19
#927500000
0!
09
#930000000
1!
b10111010 8
19
#932500000
0!
09
#935000000
1!
b10111011 8
19
#937500000
0!
09
#940000000
1!
b10111100 8
19
#942500000
0!
09
#945000000
1!
b10111101 8
19
#947500000
0!
09
#950000000
1!
b10111110 8
19
#952500000
0!
09
#955000000
1!
b10111111 8
19
#957500000
0!
09
#960000000
1!
b11000000 8
19
#962500000
0!
09
#965000000
1!
b11000001 8
19
#967500000
0!
09
#970000000
1!
b11000010 8
19
#972500000
0!
09
#975000000
1!
b11000011 8
19
#977500000
0!
09
#980000000
1!
b11000100 8
19
#982500000
0!
09
#985000000
1!
b11000101 8
19
#987500000
0!
09
#990000000
1!
b11000110 8
19
#992500000
0!
09
#995000000
1!
b11000111 8
19
#997500000
0!
09
#1000000000
1!
b11001000 8
19
