ghdl/axi4/wave.vcd
$date
  Thu May 11 14:39:48 2023
$end
$version
  GHDL v0
$end
$timescale
  1 fs
$end
$scope module standard $end
$upscope $end
$scope module std_logic_1164 $end
$upscope $end
$scope module numeric_std $end
$upscope $end
$scope module tb_myip $end
$var reg 1 ! clk $end
$var reg 1 " rst_n $end
$var reg 4 # axi_awaddr[3:0] $end
$var reg 3 $ axi_awprot[2:0] $end
$var reg 1 % axi_awvalid $end
$var reg 1 & axi_awready $end
$var reg 32 ' axi_wdata[31:0] $end
$var reg 4 ( axi_wstrb[3:0] $end
$var reg 1 ) axi_wvalid $end
$var reg 1 * axi_wready $end
$var reg 2 + axi_bresp[1:0] $end
$var reg 1 , axi_bvalid $end
$var reg 1 - axi_bready $end
$var reg 4 . axi_araddr[3:0] $end
$var reg 3 / axi_arprot[2:0] $end
$var reg 1 0 axi_arvalid $end
$var reg 1 1 axi_arready $end
$var reg 32 2 axi_rdata[31:0] $end
$var reg 2 3 axi_rresp[1:0] $end
$var reg 1 4 axi_rvalid $end
$var reg 1 5 axi_rready $end
$var reg 1 6 start_axis_tvalid $end
$var reg 128 7 start_axis_tdata[127:0] $end
$var reg 1 8 start_axis_tlast $end
$var reg 1 9 start_axis_tready $end
$var reg 1 : trigger $end
$var reg 8 ; clk_count[7:0] $end
$scope module myip_inst $end
$var reg 1 < s_axi_aclk $end
$var reg 1 = s_axi_aresetn $end
$var reg 4 > s_axi_awaddr[3:0] $end
$var reg 3 ? s_axi_awprot[2:0] $end
$var reg 1 @ s_axi_awvalid $end
$var reg 1 A s_axi_awready $end
$var reg 32 B s_axi_wdata[31:0] $end
$var reg 4 C s_axi_wstrb[3:0] $end
$var reg 1 D s_axi_wvalid $end
$var reg 1 E s_axi_wready $end
$var reg 2 F s_axi_bresp[1:0] $end
$var reg 1 G s_axi_bvalid $end
$var reg 1 H s_axi_bready $end
$var reg 4 I s_axi_araddr[3:0] $end
$var reg 3 J s_axi_arprot[2:0] $end
$var reg 1 K s_axi_arvalid $end
$var reg 1 L s_axi_arready $end
$var reg 32 M s_axi_rdata[31:0] $end
$var reg 2 N s_axi_rresp[1:0] $end
$var reg 1 O s_axi_rvalid $end
$var reg 1 P s_axi_rready $end
$var reg 1 Q s00_axi_awid[0:0] $end
$var reg 6 R s00_axi_awaddr[5:0] $end
$var reg 8 S s00_axi_awlen[7:0] $end
$var reg 3 T s00_axi_awsize[2:0] $end
$var reg 2 U s00_axi_awburst[1:0] $end
$var reg 1 V s00_axi_awlock $end
$var reg 4 W s00_axi_awcache[3:0] $end
$var reg 3 X s00_axi_awprot[2:0] $end
$var reg 4 Y s00_axi_awqos[3:0] $end
$var reg 4 Z s00_axi_awregion[3:0] $end
$comment s00_axi_awuser is not handled $end
$var reg 1 [ s00_axi_awvalid $end
$var reg 1 \ s00_axi_awready $end
$var reg 128 ] s00_axi_wdata[127:0] $end
$var reg 16 ^ s00_axi_wstrb[15:0] $end
$var reg 1 _ s00_axi_wlast $end
$comment s00_axi_wuser is not handled $end
$var reg 1 ` s00_axi_wvalid $end
$var reg 1 a s00_axi_wready $end
$var reg 1 b s00_axi_bid[0:0] $end
$var reg 2 c s00_axi_bresp[1:0] $end
$comment s00_axi_buser is not handled $end
$var reg 1 d s00_axi_bvalid $end
$var reg 1 e s00_axi_bready $end
$var reg 1 f s00_axi_arid[0:0] $end
$var reg 6 g s00_axi_araddr[5:0] $end
$var reg 8 h s00_axi_arlen[7:0] $end
$var reg 3 i s00_axi_arsize[2:0] $end
$var reg 2 j s00_axi_arburst[1:0] $end
$var reg 1 k s00_axi_arlock $end
$var reg 4 l s00_axi_arcache[3:0] $end
$var reg 3 m s00_axi_arprot[2:0] $end
$var reg 4 n s00_axi_arqos[3:0] $end
$var reg 4 o s00_axi_arregion[3:0] $end
$comment s00_axi_aruser is not handled $end
$var reg 1 p s00_axi_arvalid $end
$var reg 1 q s00_axi_arready $end
$var reg 1 r s00_axi_rid[0:0] $end
$var reg 128 s s00_axi_rdata[127:0] $end
$var reg 2 t s00_axi_rresp[1:0] $end
$var reg 1 u s00_axi_rlast $end
$comment s00_axi_ruser is not handled $end
$var reg 1 v s00_axi_rvalid $end
$var reg 1 w s00_axi_rready $end
$var reg 1 x trg $end
$var reg 4 y axi_awaddr[3:0] $end
$var reg 1 z axi_awready $end
$var reg 1 { axi_wready $end
$var reg 2 | axi_bresp[1:0] $end
$var reg 1 } axi_bvalid $end
$var reg 4 !" axi_araddr[3:0] $end
$var reg 1 "" axi_arready $end
$var reg 32 #" axi_rdata[31:0] $end
$var reg 2 $" axi_rresp[1:0] $end
$var reg 1 %" axi_rvalid $end
$var reg 32 &" slv_reg0[31:0] $end
$var reg 32 '" slv_reg1[31:0] $end
$var reg 32 (" slv_reg2[31:0] $end
$var reg 32 )" slv_reg3[31:0] $end
$var reg 1 *" slv_reg_rden $end
$var reg 1 +" slv_reg_wren $end
$var reg 32 ," reg_data_out[31:0] $end
$var integer 32 -" byte_index $end
$var reg 1 ." aw_en $end
$var reg 1 /" signal_trg $end
$scope module pattern_detector_inst $end
$var reg 1 0" axis_aclk $end
$var reg 1 1" axis_aresetn $end
$var reg 1 2" s_axis_tvalid $end
$var reg 128 3" s_axis_tdata[127:0] $end
$var reg 1 4" s_axis_tready $end
$var reg 32 5" compare_pattern[31:0] $end
$var reg 1 6" match_out $end
$var reg 1 7" aclk $end
$var reg 1 8" aresetn $end
$var reg 1 9" i_s_axis_tvalid $end
$var reg 128 :" i_s_axis_tdata[127:0] $end
$var reg 1 ;" i_s_axis_tready $end
$var reg 32 <" i_pattern[31:0] $end
$var reg 1 =" o_match_out $end
$var reg 13 >" match_accumulator[12:0] $end
$scope module gen_alligned_pattern_detect(0) $end
$upscope $end
$scope module gen_alligned_pattern_detect(1) $end
$upscope $end
$scope module gen_alligned_pattern_detect(2) $end
$upscope $end
$scope module gen_alligned_pattern_detect(3) $end
$upscope $end
$scope module gen_alligned_pattern_detect(4) $end
$upscope $end
$scope module gen_alligned_pattern_detect(5) $end
$upscope $end
$scope module gen_alligned_pattern_detect(6) $end
$upscope $end
$scope module gen_alligned_pattern_detect(7) $end
$upscope $end
$scope module gen_alligned_pattern_detect(8) $end
$upscope $end
$scope module gen_alligned_pattern_detect(9) $end
$upscope $end
$scope module gen_alligned_pattern_detect(10) $end
$upscope $end
$scope module gen_alligned_pattern_detect(11) $end
$upscope $end
$scope module gen_alligned_pattern_detect(12) $end
$upscope $end
$upscope $end
$upscope $end
$upscope $end
$enddefinitions $end
#0
1!
0"
bUUUU #
bUUU $
U%
U&
bUUUUUUUUUUUUUUUUUUUUUUUUUUUUUUUU '
b1111 (
U)
U*
bUU +
U,
1-
bUUUU .
bUUU /
U0
U1
bUUUUUUUUUUUUUUUUUUUUUUUUUUUUUUUU 2
bUU 3
U4
15
U6
bUUUUUUUUUUUUUUUUUUUUUUUUUUUUUUUUUUUUUUUUUUUUUUUUUUUUUUUUUUUUUUUUUUUUUUUUUUUUUUUUUUUUUUUUUUUUUUUUUUUUUUUUUUUUUUUUUUUUUUUUUUUUUUUU 7
U8
U9
U:
b00000000 ;
1<
0=
bUUUU >
bUUU ?
U@
UA
bUUUUUUUUUUUUUUUUUUUUUUUUUUUUUUUU B
b1111 C
UD
UE
bUU F
UG
1H
bUUUU I
bUUU J
UK
UL
bUUUUUUUUUUUUUUUUUUUUUUUUUUUUUUUU M
bUU N
UO
1P
b0 Q
b000000 R
b00000000 S
b000 T
b00 U
0V
b0000 W
b000 X
b0000 Y
b0000 Z
0[
U\
bUUUUUUUUUUUUUUUUUUUUUUUUUUUUUUUUUUUUUUUUUUUUUUUUUUUUUUUUUUUUUUUUUUUUUUUUUUUUUUUUUUUUUUUUUUUUUUUUUUUUUUUUUUUUUUUUUUUUUUUUUUUUUUUU ]
b0000000000000000 ^
0_
U`
Ua
bU b
bUU c
Ud
0e
b0 f
b000000 g
b00000000 h
b000 i
b00 j
0k
b0000 l
b000 m
b0000 n
b0000 o
0p
Uq
bU r
bUUUUUUUUUUUUUUUUUUUUUUUUUUUUUUUUUUUUUUUUUUUUUUUUUUUUUUUUUUUUUUUUUUUUUUUUUUUUUUUUUUUUUUUUUUUUUUUUUUUUUUUUUUUUUUUUUUUUUUUUUUUUUUUU s
bUU t
Uu
Uv
0w
Ux
bUUUU y
Uz
U{
bUU |
U}
bUUUU !"
U""
bUUUUUUUUUUUUUUUUUUUUUUUUUUUUUUUU #"
bUU $"
U%"
bUUUUUUUUUUUUUUUUUUUUUUUUUUUUUUUU &"
bUUUUUUUUUUUUUUUUUUUUUUUUUUUUUUUU '"
bUUUUUUUUUUUUUUUUUUUUUUUUUUUUUUUU ("
bUUUUUUUUUUUUUUUUUUUUUUUUUUUUUUUU )"
U*"
U+"
b00000000000000000000000000000000 ,"
b10000000000000000000000000000000 -"
U."
U/"
10"
01"
U2"
bUUUUUUUUUUUUUUUUUUUUUUUUUUUUUUUUUUUUUUUUUUUUUUUUUUUUUUUUUUUUUUUUUUUUUUUUUUUUUUUUUUUUUUUUUUUUUUUUUUUUUUUUUUUUUUUUUUUUUUUUUUUUUUUU 3"
14"
bUUUUUUUUUUUUUUUUUUUUUUUUUUUUUUUU 5"
U6"
17"
08"
U9"
bUUUUUUUUUUUUUUUUUUUUUUUUUUUUUUUUUUUUUUUUUUUUUUUUUUUUUUUUUUUUUUUUUUUUUUUUUUUUUUUUUUUUUUUUUUUUUUUUUUUUUUUUUUUUUUUUUUUUUUUUUUUUUUUU :"
1;"
bUUUUUUUUUUUUUUUUUUUUUUUUUUUUUUUU <"
U="
bUUUUUUUUUUUUU >"
#2500000
0!
0<
00"
07"
#5000000
1!
b0000 #
0%
0&
b00000000000000000000000000000000 '
0)
0*
b00 +
0,
b0000 .
00
01
b00000000000000000000000000000000 2
b00 3
04
06
b00000000000000000000000000000000000000000000000000000000000000000000000000000000000000000000000000000000000000000000000000000000 7
19
0:
b00000001 ;
1<
b0000 >
0@
0A
b00000000000000000000000000000000 B
0D
0E
b00 F
0G
b0000 I
0K
0L
b00000000000000000000000000000000 M
b00 N
0O
b00000000000000000000000000000000000000000000000000000000000000000000000000000000000000000000000000000000000000000000000000000000 ]
0`
0x
b0000 y
0z
0{
b00 |
0}
b1111 !"
0""
b00000000000000000000000000000000 #"
b00 $"
0%"
b00000000000000000000000000000000 &"
b00000000000000000000000000000000 '"
b00000000000000000000000000000000 ("
b00000000000000000000000000000000 )"
0*"
0+"
1."
0/"
10"
02"
b00000000000000000000000000000000000000000000000000000000000000000000000000000000000000000000000000000000000000000000000000000000 3"
b00000000000000000000000000000000 5"
06"
17"
09"
b00000000000000000000000000000000000000000000000000000000000000000000000000000000000000000000000000000000000000000000000000000000 :"
b00000000000000000000000000000000 <"
0="
b0000000000000 >"
#6250000
1"
1=
11"
18"
#7500000
0!
0<
00"
07"
#10000000
1!
b00000010 ;
1<
10"
17"
#12500000
0!
0<
00"
07"
#15000000
1!
b00000011 ;
1<
10"
17"
#17500000
0!
0<
00"
07"
#20000000
1!
b00000100 ;
1<
10"
17"
#22500000
0!
0<
00"
07"
#25000000
1!
b00000101 ;
1<
10"
17"
#27500000
0!
0<
00"
07"
#30000000
1!
b00000110 ;
1<
10"
17"
#32500000
0!
0<
00"
07"
#35000000
1!
b00000111 ;
1<
10"
17"
#37500000
0!
0<
00"
07"
#40000000
1!
1%
b11011110101011011011111011101111 '
1)
b00001000 ;
1<
1@
b11011110101011011011111011101111 B
1D
10"
17"
#42500000
0!
0<
00"
07"
#45000000
1!
1&
1*
b00001001 ;
1<
1A
1E
1z
1{
1+"
0."
10"
17"
#47500000
0!
0<
00"
07"
#50000000
1!
0%
0&
0*
1,
b00001010 ;
1<
0@
0A
0E
1G
0z
0{
1}
b11011110101011011011111011101111 &"
0+"
10"
b11011110101011011011111011101111 5"
17"
b11011110101011011011111011101111 <"
#52500000
0!
0<
00"
07"
#55000000
1!
0,
b00001011 ;
1<
0G
0}
1."
10"
17"
#57500000
0!
0<
00"
07"
#60000000
1!
b00001100 ;
1<
10"
17"
#62500000
0!
0<
00"
07"
#65000000
1!
b00001101 ;
1<
10"
17"
#67500000
0!
0<
00"
07"
#70000000
1!
b00001110 ;
1<
10"
17"
#72500000
0!
0<
00"
07"
#75000000
1!
b00001111 ;
1<
10"
17"
#77500000
0!
0<
00"
07"
#80000000
1!
b00010000 ;
1<
10"
17"
#82500000
0!
0<
00"
07"
#85000000
1!
b00010001 ;
1<
10"
17"
#87500000
0!
0<
00"
07"
#90000000
1!
b00010010 ;
1<
10"
17"
#92500000
0!
0<
00"
07"
#95000000
1!
16
b00000000000000000000000000000000000000000000000000000000000000000000000000000000000000001101111010101101101111101110111100000000 7
b00010011 ;
1<
b00000000000000000000000000000000000000000000000000000000000000000000000000000000000000001101111010101101101111101110111100000000 ]
1`
10"
12"
b00000000000000000000000000000000000000000000000000000000000000000000000000000000000000001101111010101101101111101110111100000000 3"
17"
19"
b00000000000000000000000000000000000000000000000000000000000000000000000000000000000000001101111010101101101111101110111100000000 :"
#97500000
0!
0<
00"
07"
#100000000
1!
b00000000000000000000000000000000000000000000000000000000000000000000000000000000000000001010101010111011110011001101110100000000 7
b00010100 ;
1<
b00000000000000000000000000000000000000000000000000000000000000000000000000000000000000001010101010111011110011001101110100000000 ]
10"
b00000000000000000000000000000000000000000000000000000000000000000000000000000000000000001010101010111011110011001101110100000000 3"
17"
b00000000000000000000000000000000000000000000000000000000000000000000000000000000000000001010101010111011110011001101110100000000 :"
b0000000000010 >"
#102500000
0!
0<
00"
07"
#105000000
1!
b00000000000000000000000000000000000000000000000000000000000000000000000000000000000000000001111100011111000111110001111100000000 7
1:
b00010101 ;
1<
b00000000000000000000000000000000000000000000000000000000000000000000000000000000000000000001111100011111000111110001111100000000 ]
1x
1/"
10"
b00000000000000000000000000000000000000000000000000000000000000000000000000000000000000000001111100011111000111110001111100000000 3"
16"
17"
b00000000000000000000000000000000000000000000000000000000000000000000000000000000000000000001111100011111000111110001111100000000 :"
1="
b0000000000000 >"
#107500000
0!
0<
00"
07"
#110000000
1!
06
b00000000000000000000000000000000000000000000000000000000000000000000000000000000000000000000000000000000000000000000000000000000 7
0:
b00010110 ;
1<
b00000000000000000000000000000000000000000000000000000000000000000000000000000000000000000000000000000000000000000000000000000000 ]
0`
0x
0/"
10"
02"
b00000000000000000000000000000000000000000000000000000000000000000000000000000000000000000000000000000000000000000000000000000000 3"
06"
17"
09"
b00000000000000000000000000000000000000000000000000000000000000000000000000000000000000000000000000000000000000000000000000000000 :"
0="
#112500000
0!
0<
00"
07"
#115000000
1!
b00010111 ;
1<
10"
17"
#117500000
0!
0<
00"
07"
#120000000
1!
b00011000 ;
1<
10"
17"
#122500000
0!
0<
00"
07"
#125000000
1!
16
b00000000000000000000000000000000000000000000000000000000000000000000000000000000000000001101111010101101101111101110111100000000 7
b00011001 ;
1<
b00000000000000000000000000000000000000000000000000000000000000000000000000000000000000001101111010101101101111101110111100000000 ]
1`
10"
12"
b00000000000000000000000000000000000000000000000000000000000000000000000000000000000000001101111010101101101111101110111100000000 3"
17"
19"
b00000000000000000000000000000000000000000000000000000000000000000000000000000000000000001101111010101101101111101110111100000000 :"
#127500000
0!
0<
00"
07"
#130000000
1!
b00011010 ;
1<
10"
17"
b0000000000010 >"
#132500000
0!
0<
00"
07"
#135000000
1!
06
b00000000000000000000000000000000000000000000000000000000000000000000000000000000000000000000000000000000000000000000000000000000 7
1:
b00011011 ;
1<
b00000000000000000000000000000000000000000000000000000000000000000000000000000000000000000000000000000000000000000000000000000000 ]
0`
1x
1/"
10"
02"
b00000000000000000000000000000000000000000000000000000000000000000000000000000000000000000000000000000000000000000000000000000000 3"
16"
17"
09"
b00000000000000000000000000000000000000000000000000000000000000000000000000000000000000000000000000000000000000000000000000000000 :"
1="
#137500000
0!
0<
00"
07"
#140000000
1!
b00011100 ;
1<
10"
17"
b0000000000000 >"
#142500000
0!
0<
00"
07"
#145000000
1!
0:
b00011101 ;
1<
0x
0/"
10"
06"
17"
0="
#147500000
0!
0<
00"
07"
#150000000
1!
16
b00000000000000000000000000000000000000000000000000000000000000000000000000000000000000000000000011011110101011011011111011101111 7
b00011110 ;
1<
b00000000000000000000000000000000000000000000000000000000000000000000000000000000000000000000000011011110101011011011111011101111 ]
1`
10"
12"
b00000000000000000000000000000000000000000000000000000000000000000000000000000000000000000000000011011110101011011011111011101111 3"
17"
19"
b00000000000000000000000000000000000000000000000000000000000000000000000000000000000000000000000011011110101011011011111011101111 :"
#152500000
0!
0<
00"
07"
#155000000
1!
06
b00000000000000000000000000000000000000000000000000000000000000000000000000000000000000000000000000000000000000000000000000000000 7
b00011111 ;
1<
b00000000000000000000000000000000000000000000000000000000000000000000000000000000000000000000000000000000000000000000000000000000 ]
0`
10"
02"
b00000000000000000000000000000000000000000000000000000000000000000000000000000000000000000000000000000000000000000000000000000000 3"
17"
09"
b00000000000000000000000000000000000000000000000000000000000000000000000000000000000000000000000000000000000000000000000000000000 :"
b0000000000001 >"
#157500000
0!
0<
00"
07"
#160000000
1!
1:
b00100000 ;
1<
1x
1/"
10"
16"
17"
1="
b0000000000000 >"
#162500000
0!
0<
00"
07"
#165000000
1!
0:
b00100001 ;
1<
0x
0/"
10"
06"
17"
0="
#167500000
0!
0<
00"
07"
#170000000
1!
b00100010 ;
1<
10"
17"
#172500000
0!
0<
00"
07"
#175000000
1!
b00100011 ;
1<
10"
17"
#177500000
0!
0<
00"
07"
#180000000
1!
b00100100 ;
1<
10"
17"
#182500000
0!
0<
00"
07"
#185000000
1!
b00100101 ;
1<
10"
17"
#187500000
0!
0<
00"
07"
#190000000
1!
b00100110 ;
1<
10"
17"
#192500000
0!
0<
00"
07"
#195000000
1!
b00100111 ;
1<
10"
17"
#197500000
0!
0<
00"
07"
#200000000
1!
b00101000 ;
1<
10"
17"
#202500000
0!
0<
00"
07"
#205000000
1!
b00101001 ;
1<
10"
17"
#207500000
0!
0<
00"
07"
#210000000
1!
b00101010 ;
1<
10"
17"
#212500000
0!
0<
00"
07"
#215000000
1!
b00101011 ;
1<
10"
17"
#217500000
0!
0<
00"
07"
#220000000
1!
b00101100 ;
1<
10"
17"
#222500000
0!
0<
00"
07"
#225000000
1!
b00101101 ;
1<
10"
17"
#227500000
0!
0<
00"
07"
#230000000
1!
b00101110 ;
1<
10"
17"
#232500000
0!
0<
00"
07"
#235000000
1!
b00101111 ;
1<
10"
17"
#237500000
0!
0<
00"
07"
#240000000
1!
b00110000 ;
1<
10"
17"
#242500000
0!
0<
00"
07"
#245000000
1!
b00110001 ;
1<
10"
17"
#247500000
0!
0<
00"
07"
#250000000
1!
b00110010 ;
1<
10"
17"
#252500000
0!
0<
00"
07"
#255000000
1!
b00110011 ;
1<
10"
17"
#257500000
0!
0<
00"
07"
#260000000
1!
b00110100 ;
1<
10"
17"
#262500000
0!
0<
00"
07"
#265000000
1!
b00110101 ;
1<
10"
17"
#267500000
0!
0<
00"
07"
#270000000
1!
b00110110 ;
1<
10"
17"
#272500000
0!
0<
00"
07"
#275000000
1!
b00110111 ;
1<
10"
17"
#277500000
0!
0<
00"
07"
#280000000
1!
b00111000 ;
1<
10"
17"
#282500000
0!
0<
00"
07"
#285000000
1!
b00111001 ;
1<
10"
17"
#287500000
0!
0<
00"
07"
#290000000
1!
b00111010 ;
1<
10"
17"
#292500000
0!
0<
00"
07"
#295000000
1!
b00111011 ;
1<
10"
17"
#297500000
0!
0<
00"
07"
#300000000
1!
b00111100 ;
1<
10"
17"
#302500000
0!
0<
00"
07"
#305000000
1!
b00111101 ;
1<
10"
17"
#307500000
0!
0<
00"
07"
#310000000
1!
b00111110 ;
1<
10"
17"
#312500000
0!
0<
00"
07"
#315000000
1!
b00111111 ;
1<
10"
17"
#317500000
0!
0<
00"
07"
#320000000
1!
b01000000 ;
1<
10"
17"
#322500000
0!
0<
00"
07"
#325000000
1!
b01000001 ;
1<
10"
17"
#327500000
0!
0<
00"
07"
#330000000
1!
b01000010 ;
1<
10"
17"
#332500000
0!
0<
00"
07"
#335000000
1!
b01000011 ;
1<
10"
17"
#337500000
0!
0<
00"
07"
#340000000
1!
b01000100 ;
1<
10"
17"
#342500000
0!
0<
00"
07"
#345000000
1!
b01000101 ;
1<
10"
17"
#347500000
0!
0<
00"
07"
#350000000
1!
b01000110 ;
1<
10"
17"
#352500000
0!
0<
00"
07"
#355000000
1!
b01000111 ;
1<
10"
17"
#357500000
0!
0<
00"
07"
#360000000
1!
b01001000 ;
1<
10"
17"
#362500000
0!
0<
00"
07"
#365000000
1!
b01001001 ;
1<
10"
17"
#367500000
0!
0<
00"
07"
#370000000
1!
b01001010 ;
1<
10"
17"
#372500000
0!
0<
00"
07"
#375000000
1!
b01001011 ;
1<
10"
17"
#377500000
0!
0<
00"
07"
#380000000
1!
b01001100 ;
1<
10"
17"
#382500000
0!
0<
00"
07"
#385000000
1!
b01001101 ;
1<
10"
17"
#387500000
0!
0<
00"
07"
#390000000
1!
b01001110 ;
1<
10"
17"
#392500000
0!
0<
00"
07"
#395000000
1!
b01001111 ;
1<
10"
17"
#397500000
0!
0<
00"
07"
#400000000
1!
b01010000 ;
1<
10"
17"
#402500000
0!
0<
00"
07"
#405000000
1!
b01010001 ;
1<
10"
17"
#407500000
0!
0<
00"
07"
#410000000
1!
b01010010 ;
1<
10"
17"
#412500000
0!
0<
00"
07"
#415000000
1!
b01010011 ;
1<
10"
17"
#417500000
0!
0<
00"
07"
#420000000
1!
b01010100 ;
1<
10"
17"
#422500000
0!
0<
00"
07"
#425000000
1!
b01010101 ;
1<
10"
17"
#427500000
0!
0<
00"
07"
#430000000
1!
b01010110 ;
1<
10"
17"
#432500000
0!
0<
00"
07"
#435000000
1!
b01010111 ;
1<
10"
17"
#437500000
0!
0<
00"
07"
#440000000
1!
b01011000 ;
1<
10"
17"
#442500000
0!
0<
00"
07"
#445000000
1!
b01011001 ;
1<
10"
17"
#447500000
0!
0<
00"
07"
#450000000
1!
b01011010 ;
1<
10"
17"
#452500000
0!
0<
00"
07"
#455000000
1!
b01011011 ;
1<
10"
17"
#457500000
0!
0<
00"
07"
#460000000
1!
b01011100 ;
1<
10"
17"
#462500000
0!
0<
00"
07"
#465000000
1!
b01011101 ;
1<
10"
17"
#467500000
0!
0<
00"
07"
#470000000
1!
b01011110 ;
1<
10"
17"
#472500000
0!
0<
00"
07"
#475000000
1!
b01011111 ;
1<
10"
17"
#477500000
0!
0<
00"
07"
#480000000
1!
b01100000 ;
1<
10"
17"
#482500000
0!
0<
00"
07"
#485000000
1!
b01100001 ;
1<
10"
17"
#487500000
0!
0<
00"
07"
#490000000
1!
b01100010 ;
1<
10"
17"
#492500000
0!
0<
00"
07"
#495000000
1!
b01100011 ;
1<
10"
17"
#497500000
0!
0<
00"
07"
#500000000
1!
b01100100 ;
1<
10"
17"
#502500000
0!
0<
00"
07"
#505000000
1!
b01100101 ;
1<
10"
17"
#507500000
0!
0<
00"
07"
#510000000
1!
b01100110 ;
1<
10"
17"
#512500000
0!
0<
00"
07"
#515000000
1!
b01100111 ;
1<
10"
17"
#517500000
0!
0<
00"
07"
#520000000
1!
b01101000 ;
1<
10"
17"
#522500000
0!
0<
00"
07"
#525000000
1!
b01101001 ;
1<
10"
17"
#527500000
0!
0<
00"
07"
#530000000
1!
b01101010 ;
1<
10"
17"
#532500000
0!
0<
00"
07"
#535000000
1!
b01101011 ;
1<
10"
17"
#537500000
0!
0<
00"
07"
#540000000
1!
b01101100 ;
1<
10"
17"
#542500000
0!
0<
00"
07"
#545000000
1!
b01101101 ;
1<
10"
17"
#547500000
0!
0<
00"
07"
#550000000
1!
b01101110 ;
1<
10"
17"
#552500000
0!
0<
00"
07"
#555000000
1!
b01101111 ;
1<
10"
17"
#557500000
0!
0<
00"
07"
#560000000
1!
b01110000 ;
1<
10"
17"
#562500000
0!
0<
00"
07"
#565000000
1!
b01110001 ;
1<
10"
17"
#567500000
0!
0<
00"
07"
#570000000
1!
b01110010 ;
1<
10"
17"
#572500000
0!
0<
00"
07"
#575000000
1!
b01110011 ;
1<
10"
17"
#577500000
0!
0<
00"
07"
#580000000
1!
b01110100 ;
1<
10"
17"
#582500000
0!
0<
00"
07"
#585000000
1!
b01110101 ;
1<
10"
17"
#587500000
0!
0<
00"
07"
#590000000
1!
b01110110 ;
1<
10"
17"
#592500000
0!
0<
00"
07"
#595000000
1!
b01110111 ;
1<
10"
17"
#597500000
0!
0<
00"
07"
#600000000
1!
b01111000 ;
1<
10"
17"
#602500000
0!
0<
00"
07"
#605000000
1!
b01111001 ;
1<
10"
17"
#607500000
0!
0<
00"
07"
#610000000
1!
b01111010 ;
1<
10"
17"
#612500000
0!
0<
00"
07"
#615000000
1!
b01111011 ;
1<
10"
17"
#617500000
0!
0<
00"
07"
#620000000
1!
b01111100 ;
1<
10"
17"
#622500000
0!
0<
00"
07"
#625000000
1!
b01111101 ;
1<
10"
17"
#627500000
0!
0<
00"
07"
#630000000
1!
b01111110 ;
1<
10"
17"
#632500000
0!
0<
00"
07"
#635000000
1!
b01111111 ;
1<
10"
17"
#637500000
0!
0<
00"
07"
#640000000
1!
b10000000 ;
1<
10"
17"
#642500000
0!
0<
00"
07"
#645000000
1!
b10000001 ;
1<
10"
17"
#647500000
0!
0<
00"
07"
#650000000
1!
b10000010 ;
1<
10"
17"
#652500000
0!
0<
00"
07"
#655000000
1!
b10000011 ;
1<
10"
17"
#657500000
0!
0<
00"
07"
#660000000
1!
b10000100 ;
1<
10"
17"
#662500000
0!
0<
00"
07"
#665000000
1!
b10000101 ;
1<
10"
17"
#667500000
0!
0<
00"
07"
#670000000
1!
b10000110 ;
1<
10"
17"
#672500000
0!
0<
00"
07"
#675000000
1!
b10000111 ;
1<
10"
17"
#677500000
0!
0<
00"
07"
#680000000
1!
b10001000 ;
1<
10"
17"
#682500000
0!
0<
00"
07"
#685000000
1!
b10001001 ;
1<
10"
17"
#687500000
0!
0<
00"
07"
#690000000
1!
b10001010 ;
1<
10"
17"
#692500000
0!
0<
00"
07"
#695000000
1!
b10001011 ;
1<
10"
17"
#697500000
0!
0<
00"
07"
#700000000
1!
b10001100 ;
1<
10"
17"
#702500000
0!
0<
00"
07"
#705000000
1!
b10001101 ;
1<
10"
17"
#707500000
0!
0<
00"
07"
#710000000
1!
b10001110 ;
1<
10"
17"
#712500000
0!
0<
00"
07"
#715000000
1!
b10001111 ;
1<
10"
17"
#717500000
0!
0<
00"
07"
#720000000
1!
b10010000 ;
1<
10"
17"
#722500000
0!
0<
00"
07"
#725000000
1!
b10010001 ;
1<
10"
17"
#727500000
0!
0<
00"
07"
#730000000
1!
b10010010 ;
1<
10"
17"
#732500000
0!
0<
00"
07"
#735000000
1!
b10010011 ;
1<
10"
17"
#737500000
0!
0<
00"
07"
#740000000
1!
b10010100 ;
1<
10"
17"
#742500000
0!
0<
00"
07"
#745000000
1!
b10010101 ;
1<
10"
17"
#747500000
0!
0<
00"
07"
#750000000
1!
b10010110 ;
1<
10"
17"
#752500000
0!
0<
00"
07"
#755000000
1!
b10010111 ;
1<
10"
17"
#757500000
0!
0<
00"
07"
#760000000
1!
b10011000 ;
1<
10"
17"
#762500000
0!
0<
00"
07"
#765000000
1!
b10011001 ;
1<
10"
17"
#767500000
0!
0<
00"
07"
#770000000
1!
b10011010 ;
1<
10"
17"
#772500000
0!
0<
00"
07"
#775000000
1!
b10011011 ;
1<
10"
17"
#777500000
0!
0<
00"
07"
#780000000
1!
b10011100 ;
1<
10"
17"
#782500000
0!
0<
00"
07"
#785000000
1!
b10011101 ;
1<
10"
17"
#787500000
0!
0<
00"
07"
#790000000
1!
b10011110 ;
1<
10"
17"
#792500000
0!
0<
00"
07"
#795000000
1!
b10011111 ;
1<
10"
17"
#797500000
0!
0<
00"
07"
#800000000
1!
b10100000 ;
1<
10"
17"
#802500000
0!
0<
00"
07"
#805000000
1!
b10100001 ;
1<
10"
17"
#807500000
0!
0<
00"
07"
#810000000
1!
b10100010 ;
1<
10"
17"
#812500000
0!
0<
00"
07"
#815000000
1!
b10100011 ;
1<
10"
17"
#817500000
0!
0<
00"
07"
#820000000
1!
b10100100 ;
1<
10"
17"
#822500000
0!
0<
00"
07"
#825000000
1!
b10100101 ;
1<
10"
17"
#827500000
0!
0<
00"
07"
#830000000
1!
b10100110 ;
1<
10"
17"
#832500000
0!
0<
00"
07"
#835000000
1!
b10100111 ;
1<
10"
17"
#837500000
0!
0<
00"
07"
#840000000
1!
b10101000 ;
1<
10"
17"
#842500000
0!
0<
00"
07"
#845000000
1!
b10101001 ;
1<
10"
17"
#847500000
0!
0<
00"
07"
#850000000
1!
b10101010 ;
1<
10"
17"
#852500000
0!
0<
00"
07"
#855000000
1!
b10101011 ;
1<
10"
17"
#857500000
0!
0<
00"
07"
#860000000
1!
b10101100 ;
1<
10"
17"
#862500000
0!
0<
00"
07"
#865000000
1!
b10101101 ;
1<
10"
17"
#867500000
0!
0<
00"
07"
#870000000
1!
b10101110 ;
1<
10"
17"
#872500000
0!
0<
00"
07"
#875000000
1!
b10101111 ;
1<
10"
17"
#877500000
0!
0<
00"
07"
#880000000
1!
b10110000 ;
1<
10"
17"
#882500000
0!
0<
00"
07"
#885000000
1!
b10110001 ;
1<
10"
17"
#887500000
0!
0<
00"
07"
#890000000
1!
b10110010 ;
1<
10"
17"
#892500000
0!
0<
00"
07"
#895000000
1!
b10110011 ;
1<
10"
17"
#897500000
0!
0<
00"
07"
#900000000
1!
b10110100 ;
1<
10"
17"
#902500000
0!
0<
00"
07"
#905000000
1!
b10110101 ;
1<
10"
17"
#907500000
0!
0<
00"
07"
#910000000
1!
b10110110 ;
1<
10"
17"
#912500000
0!
0<
00"
07"
