ghdl/axis/wave.vcd
$date
  Thu May 11 14:31:15 2023
$end
$version
  GHDL v0
$end
$timescale
  1 fs
$end
$scope module standard $end
$upscope $end
$scope module std_logic_1164 $end
$upscope $end
$scope module numeric_std $end
$upscope $end
$scope module tb_myip $end
$var reg 1 ! clk $end
$var reg 1 " rst_n $end
$var reg 4 # axi_awaddr[3:0] $end
$var reg 3 $ axi_awprot[2:0] $end
$var reg 1 % axi_awvalid $end
$var reg 1 & axi_awready $end
$var reg 32 ' axi_wdata[31:0] $end
$var reg 4 ( axi_wstrb[3:0] $end
$var reg 1 ) axi_wvalid $end
$var reg 1 * axi_wready $end
$var reg 2 + axi_bresp[1:0] $end
$var reg 1 , axi_bvalid $end
$var reg 1 - axi_bready $end
$var reg 4 . axi_araddr[3:0] $end
$var reg 3 / axi_arprot[2:0] $end
$var reg 1 0 axi_arvalid $end
$var reg 1 1 axi_arready $end
$var reg 32 2 axi_rdata[31:0] $end
$var reg 2 3 axi_rresp[1:0] $end
$var reg 1 4 axi_rvalid $end
$var reg 1 5 axi_rready $end
$var reg 1 6 start_axis_tvalid $end
$var reg 128 7 start_axis_tdata[127:0] $end
$var reg 1 8 start_axis_tlast $end
$var reg 1 9 start_axis_tready $end
$var reg 1 : trigger $end
$var reg 8 ; clk_count[7:0] $end
$scope module myip_inst $end
$var reg 1 < s_axi_aclk $end
$var reg 1 = s_axi_aresetn $end
$var reg 4 > s_axi_awaddr[3:0] $end
$var reg 3 ? s_axi_awprot[2:0] $end
$var reg 1 @ s_axi_awvalid $end
$var reg 1 A s_axi_awready $end
$var reg 32 B s_axi_wdata[31:0] $end
$var reg 4 C s_axi_wstrb[3:0] $end
$var reg 1 D s_axi_wvalid $end
$var reg 1 E s_axi_wready $end
$var reg 2 F s_axi_bresp[1:0] $end
$var reg 1 G s_axi_bvalid $end
$var reg 1 H s_axi_bready $end
$var reg 4 I s_axi_araddr[3:0] $end
$var reg 3 J s_axi_arprot[2:0] $end
$var reg 1 K s_axi_arvalid $end
$var reg 1 L s_axi_arready $end
$var reg 32 M s_axi_rdata[31:0] $end
$var reg 2 N s_axi_rresp[1:0] $end
$var reg 1 O s_axi_rvalid $end
$var reg 1 P s_axi_rready $end
$var reg 1 Q s00_axis_tvalid $end
$var reg 128 R s00_axis_tdata[127:0] $end
$var reg 1 S s00_axis_tlast $end
$var reg 1 T trg $end
$var reg 4 U axi_awaddr[3:0] $end
$var reg 1 V axi_awready $end
$var reg 1 W axi_wready $end
$var reg 2 X axi_bresp[1:0] $end
$var reg 1 Y axi_bvalid $end
$var reg 4 Z axi_araddr[3:0] $end
$var reg 1 [ axi_arready $end
$var reg 32 \ axi_rdata[31:0] $end
$var reg 2 ] axi_rresp[1:0] $end
$var reg 1 ^ axi_rvalid $end
$var reg 32 _ slv_reg0[31:0] $end
$var reg 32 ` slv_reg1[31:0] $end
$var reg 32 a slv_reg2[31:0] $end
$var reg 32 b slv_reg3[31:0] $end
$var reg 1 c slv_reg_rden $end
$var reg 1 d slv_reg_wren $end
$var reg 32 e reg_data_out[31:0] $end
$var integer 32 f byte_index $end
$var reg 1 g aw_en $end
$var reg 1 h signal_trg $end
$scope module pattern_detector_inst $end
$var reg 1 i axis_aclk $end
$var reg 1 j axis_aresetn $end
$var reg 1 k s_axis_tvalid $end
$var reg 128 l s_axis_tdata[127:0] $end
$var reg 1 m s_axis_tready $end
$var reg 32 n compare_pattern[31:0] $end
$var reg 1 o match_out $end
$var reg 1 p aclk $end
$var reg 1 q aresetn $end
$var reg 1 r i_s_axis_tvalid $end
$var reg 128 s i_s_axis_tdata[127:0] $end
$var reg 1 t i_s_axis_tready $end
$var reg 32 u i_pattern[31:0] $end
$var reg 1 v o_match_out $end
$var reg 13 w match_accumulator[12:0] $end
$scope module gen_alligned_pattern_detect(0) $end
$upscope $end
$scope module gen_alligned_pattern_detect(1) $end
$upscope $end
$scope module gen_alligned_pattern_detect(2) $end
$upscope $end
$scope module gen_alligned_pattern_detect(3) $end
$upscope $end
$scope module gen_alligned_pattern_detect(4) $end
$upscope $end
$scope module gen_alligned_pattern_detect(5) $end
$upscope $end
$scope module gen_alligned_pattern_detect(6) $end
$upscope $end
$scope module gen_alligned_pattern_detect(7) $end
$upscope $end
$scope module gen_alligned_pattern_detect(8) $end
$upscope $end
$scope module gen_alligned_pattern_detect(9) $end
$upscope $end
$scope module gen_alligned_pattern_detect(10) $end
$upscope $end
$scope module gen_alligned_pattern_detect(11) $end
$upscope $end
$scope module gen_alligned_pattern_detect(12) $end
$upscope $end
$upscope $end
$upscope $end
$upscope $end
$enddefinitions $end
#0
1!
0"
bUUUU #
bUUU $
U%
U&
bUUUUUUUUUUUUUUUUUUUUUUUUUUUUUUUU '
b1111 (
U)
U*
bUU +
U,
1-
bUUUU .
bUUU /
U0
U1
bUUUUUUUUUUUUUUUUUUUUUUUUUUUUUUUU 2
bUU 3
U4
15
U6
bUUUUUUUUUUUUUUUUUUUUUUUUUUUUUUUUUUUUUUUUUUUUUUUUUUUUUUUUUUUUUUUUUUUUUUUUUUUUUUUUUUUUUUUUUUUUUUUUUUUUUUUUUUUUUUUUUUUUUUUUUUUUUUUU 7
U8
U9
U:
b00000000 ;
1<
0=
bUUUU >
bUUU ?
U@
UA
bUUUUUUUUUUUUUUUUUUUUUUUUUUUUUUUU B
b1111 C
UD
UE
bUU F
UG
1H
bUUUU I
bUUU J
UK
UL
bUUUUUUUUUUUUUUUUUUUUUUUUUUUUUUUU M
bUU N
UO
1P
UQ
bUUUUUUUUUUUUUUUUUUUUUUUUUUUUUUUUUUUUUUUUUUUUUUUUUUUUUUUUUUUUUUUUUUUUUUUUUUUUUUUUUUUUUUUUUUUUUUUUUUUUUUUUUUUUUUUUUUUUUUUUUUUUUUUU R
US
UT
bUUUU U
UV
UW
bUU X
UY
bUUUU Z
U[
bUUUUUUUUUUUUUUUUUUUUUUUUUUUUUUUU \
bUU ]
U^
bUUUUUUUUUUUUUUUUUUUUUUUUUUUUUUUU _
bUUUUUUUUUUUUUUUUUUUUUUUUUUUUUUUU `
bUUUUUUUUUUUUUUUUUUUUUUUUUUUUUUUU a
bUUUUUUUUUUUUUUUUUUUUUUUUUUUUUUUU b
Uc
Ud
b00000000000000000000000000000000 e
b10000000000000000000000000000000 f
Ug
Uh
1i
0j
Uk
bUUUUUUUUUUUUUUUUUUUUUUUUUUUUUUUUUUUUUUUUUUUUUUUUUUUUUUUUUUUUUUUUUUUUUUUUUUUUUUUUUUUUUUUUUUUUUUUUUUUUUUUUUUUUUUUUUUUUUUUUUUUUUUUU l
1m
bUUUUUUUUUUUUUUUUUUUUUUUUUUUUUUUU n
Uo
1p
0q
Ur
bUUUUUUUUUUUUUUUUUUUUUUUUUUUUUUUUUUUUUUUUUUUUUUUUUUUUUUUUUUUUUUUUUUUUUUUUUUUUUUUUUUUUUUUUUUUUUUUUUUUUUUUUUUUUUUUUUUUUUUUUUUUUUUUU s
1t
bUUUUUUUUUUUUUUUUUUUUUUUUUUUUUUUU u
Uv
bUUUUUUUUUUUUU w
#2500000
0!
0<
0i
0p
#5000000
1!
b0000 #
0%
0&
b00000000000000000000000000000000 '
0)
0*
b00 +
0,
b0000 .
00
01
b00000000000000000000000000000000 2
b00 3
04
06
b00000000000000000000000000000000000000000000000000000000000000000000000000000000000000000000000000000000000000000000000000000000 7
19
0:
b00000001 ;
1<
b0000 >
0@
0A
b00000000000000000000000000000000 B
0D
0E
b00 F
0G
b0000 I
0K
0L
b00000000000000000000000000000000 M
b00 N
0O
0Q
b00000000000000000000000000000000000000000000000000000000000000000000000000000000000000000000000000000000000000000000000000000000 R
0T
b0000 U
0V
0W
b00 X
0Y
b1111 Z
0[
b00000000000000000000000000000000 \
b00 ]
0^
b00000000000000000000000000000000 _
b00000000000000000000000000000000 `
b00000000000000000000000000000000 a
b00000000000000000000000000000000 b
0c
0d
b11111111111111111111111111111111 e
1g
0h
1i
0k
b00000000000000000000000000000000000000000000000000000000000000000000000000000000000000000000000000000000000000000000000000000000 l
b00000000000000000000000000000000 n
0o
1p
0r
b00000000000000000000000000000000000000000000000000000000000000000000000000000000000000000000000000000000000000000000000000000000 s
b00000000000000000000000000000000 u
0v
b0000000000000 w
#6250000
1"
1=
1j
1q
#7500000
0!
0<
0i
0p
#10000000
1!
b00000010 ;
1<
1i
1p
#12500000
0!
0<
0i
0p
#15000000
1!
b00000011 ;
1<
1i
1p
#17500000
0!
0<
0i
0p
#20000000
1!
b00000100 ;
1<
1i
1p
#22500000
0!
0<
0i
0p
#25000000
1!
b00000101 ;
1<
1i
1p
#27500000
0!
0<
0i
0p
#30000000
1!
b00000110 ;
1<
1i
1p
#32500000
0!
0<
0i
0p
#35000000
1!
b00000111 ;
1<
1i
1p
#37500000
0!
0<
0i
0p
#40000000
1!
1%
b11011110101011011011111011101111 '
1)
b00001000 ;
1<
1@
b11011110101011011011111011101111 B
1D
1i
1p
#42500000
0!
0<
0i
0p
#45000000
1!
1&
1*
b00001001 ;
1<
1A
1E
1V
1W
1d
0g
1i
1p
#47500000
0!
0<
0i
0p
#50000000
1!
0%
0&
0*
1,
b00001010 ;
1<
0@
0A
0E
1G
0V
0W
1Y
b11011110101011011011111011101111 _
0d
1i
b11011110101011011011111011101111 n
1p
b11011110101011011011111011101111 u
#52500000
0!
0<
0i
0p
#55000000
1!
0,
b00001011 ;
1<
0G
0Y
1g
1i
1p
#57500000
0!
0<
0i
0p
#60000000
1!
b00001100 ;
1<
1i
1p
#62500000
0!
0<
0i
0p
#65000000
1!
b00001101 ;
1<
1i
1p
#67500000
0!
0<
0i
0p
#70000000
1!
b00001110 ;
1<
1i
1p
#72500000
0!
0<
0i
0p
#75000000
1!
b00001111 ;
1<
1i
1p
#77500000
0!
0<
0i
0p
#80000000
1!
b00010000 ;
1<
1i
1p
#82500000
0!
0<
0i
0p
#85000000
1!
b00010001 ;
1<
1i
1p
#87500000
0!
0<
0i
0p
#90000000
1!
b00010010 ;
1<
1i
1p
#92500000
0!
0<
0i
0p
#95000000
1!
16
b00000000000000000000000000000000000000000000000000000000000000000000000000000000000000001101111010101101101111101110111100000000 7
b00010011 ;
1<
1Q
b00000000000000000000000000000000000000000000000000000000000000000000000000000000000000001101111010101101101111101110111100000000 R
1i
1k
b00000000000000000000000000000000000000000000000000000000000000000000000000000000000000001101111010101101101111101110111100000000 l
1p
1r
b00000000000000000000000000000000000000000000000000000000000000000000000000000000000000001101111010101101101111101110111100000000 s
#97500000
0!
0<
0i
0p
#100000000
1!
b00000000000000000000000000000000000000000000000000000000000000000000000000000000000000001010101010111011110011001101110100000000 7
b00010100 ;
1<
b00000000000000000000000000000000000000000000000000000000000000000000000000000000000000001010101010111011110011001101110100000000 R
1i
b00000000000000000000000000000000000000000000000000000000000000000000000000000000000000001010101010111011110011001101110100000000 l
1p
b00000000000000000000000000000000000000000000000000000000000000000000000000000000000000001010101010111011110011001101110100000000 s
b0000000000010 w
#102500000
0!
0<
0i
0p
#105000000
1!
b00000000000000000000000000000000000000000000000000000000000000000000000000000000000000000001111100011111000111110001111100000000 7
1:
b00010101 ;
1<
b00000000000000000000000000000000000000000000000000000000000000000000000000000000000000000001111100011111000111110001111100000000 R
1T
1h
1i
b00000000000000000000000000000000000000000000000000000000000000000000000000000000000000000001111100011111000111110001111100000000 l
1o
1p
b00000000000000000000000000000000000000000000000000000000000000000000000000000000000000000001111100011111000111110001111100000000 s
1v
b0000000000000 w
#107500000
0!
0<
0i
0p
#110000000
1!
06
b00000000000000000000000000000000000000000000000000000000000000000000000000000000000000000000000000000000000000000000000000000000 7
0:
b00010110 ;
1<
0Q
b00000000000000000000000000000000000000000000000000000000000000000000000000000000000000000000000000000000000000000000000000000000 R
0T
0h
1i
0k
b00000000000000000000000000000000000000000000000000000000000000000000000000000000000000000000000000000000000000000000000000000000 l
0o
1p
0r
b00000000000000000000000000000000000000000000000000000000000000000000000000000000000000000000000000000000000000000000000000000000 s
0v
#112500000
0!
0<
0i
0p
#115000000
1!
b00010111 ;
1<
1i
1p
#117500000
0!
0<
0i
0p
#120000000
1!
b00011000 ;
1<
1i
1p
#122500000
0!
0<
0i
0p
#125000000
1!
16
b00000000000000000000000000000000000000000000000000000000000000000000000000000000000000001101111010101101101111101110111100000000 7
b00011001 ;
1<
1Q
b00000000000000000000000000000000000000000000000000000000000000000000000000000000000000001101111010101101101111101110111100000000 R
1i
1k
b00000000000000000000000000000000000000000000000000000000000000000000000000000000000000001101111010101101101111101110111100000000 l
1p
1r
b00000000000000000000000000000000000000000000000000000000000000000000000000000000000000001101111010101101101111101110111100000000 s
#127500000
0!
0<
0i
0p
#130000000
1!
b00011010 ;
1<
1i
1p
b0000000000010 w
#132500000
0!
0<
0i
0p
#135000000
1!
06
b00000000000000000000000000000000000000000000000000000000000000000000000000000000000000000000000000000000000000000000000000000000 7
1:
b00011011 ;
1<
0Q
b00000000000000000000000000000000000000000000000000000000000000000000000000000000000000000000000000000000000000000000000000000000 R
1T
1h
1i
0k
b00000000000000000000000000000000000000000000000000000000000000000000000000000000000000000000000000000000000000000000000000000000 l
1o
1p
0r
b00000000000000000000000000000000000000000000000000000000000000000000000000000000000000000000000000000000000000000000000000000000 s
1v
#137500000
0!
0<
0i
0p
#140000000
1!
b00011100 ;
1<
1i
1p
b0000000000000 w
#142500000
0!
0<
0i
0p
#145000000
1!
0:
b00011101 ;
1<
0T
0h
1i
0o
1p
0v
#147500000
0!
0<
0i
0p
#150000000
1!
16
b00000000000000000000000000000000000000000000000000000000000000000000000000000000000000000000000011011110101011011011111011101111 7
b00011110 ;
1<
1Q
b00000000000000000000000000000000000000000000000000000000000000000000000000000000000000000000000011011110101011011011111011101111 R
1i
1k
b00000000000000000000000000000000000000000000000000000000000000000000000000000000000000000000000011011110101011011011111011101111 l
1p
1r
b00000000000000000000000000000000000000000000000000000000000000000000000000000000000000000000000011011110101011011011111011101111 s
#152500000
0!
0<
0i
0p
#155000000
1!
06
b00000000000000000000000000000000000000000000000000000000000000000000000000000000000000000000000000000000000000000000000000000000 7
b00011111 ;
1<
0Q
b00000000000000000000000000000000000000000000000000000000000000000000000000000000000000000000000000000000000000000000000000000000 R
1i
0k
b00000000000000000000000000000000000000000000000000000000000000000000000000000000000000000000000000000000000000000000000000000000 l
1p
0r
b00000000000000000000000000000000000000000000000000000000000000000000000000000000000000000000000000000000000000000000000000000000 s
b0000000000001 w
#157500000
0!
0<
0i
0p
#160000000
1!
1:
b00100000 ;
1<
1T
1h
1i
1o
1p
1v
b0000000000000 w
#162500000
0!
0<
0i
0p
#165000000
1!
0:
b00100001 ;
1<
0T
0h
1i
0o
1p
0v
#167500000
0!
0<
0i
0p
#170000000
1!
b00100010 ;
1<
1i
1p
#172500000
0!
0<
0i
0p
#175000000
1!
b00100011 ;
1<
1i
1p
#177500000
0!
0<
0i
0p
#180000000
1!
b00100100 ;
1<
1i
1p
#182500000
0!
0<
0i
0p
#185000000
1!
b00100101 ;
1<
1i
1p
#187500000
0!
0<
0i
0p
#190000000
1!
b00100110 ;
1<
1i
1p
#192500000
0!
0<
0i
0p
#195000000
1!
b00100111 ;
1<
1i
1p
#197500000
0!
0<
0i
0p
#200000000
1!
b00101000 ;
1<
1i
1p
#202500000
0!
0<
0i
0p
#205000000
1!
b00101001 ;
1<
1i
1p
#207500000
0!
0<
0i
0p
#210000000
1!
b00101010 ;
1<
1i
1p
#212500000
0!
0<
0i
0p
#215000000
1!
b00101011 ;
1<
1i
1p
#217500000
0!
0<
0i
0p
#220000000
1!
b00101100 ;
1<
1i
1p
#222500000
0!
0<
0i
0p
#225000000
1!
b00101101 ;
1<
1i
1p
#227500000
0!
0<
0i
0p
#230000000
1!
b00101110 ;
1<
1i
1p
#232500000
0!
0<
0i
0p
#235000000
1!
b00101111 ;
1<
1i
1p
#237500000
0!
0<
0i
0p
#240000000
1!
b00110000 ;
1<
1i
1p
#242500000
0!
0<
0i
0p
#245000000
1!
b00110001 ;
1<
1i
1p
#247500000
0!
0<
0i
0p
#250000000
1!
b00110010 ;
1<
1i
1p
#252500000
0!
0<
0i
0p
#255000000
1!
b00110011 ;
1<
1i
1p
#257500000
0!
0<
0i
0p
#260000000
1!
b00110100 ;
1<
1i
1p
#262500000
0!
0<
0i
0p
#265000000
1!
b00110101 ;
1<
1i
1p
#267500000
0!
0<
0i
0p
#270000000
1!
b00110110 ;
1<
1i
1p
#272500000
0!
0<
0i
0p
#275000000
1!
b00110111 ;
1<
1i
1p
#277500000
0!
0<
0i
0p
#280000000
1!
b00111000 ;
1<
1i
1p
#282500000
0!
0<
0i
0p
#285000000
1!
b00111001 ;
1<
1i
1p
#287500000
0!
0<
0i
0p
#290000000
1!
b00111010 ;
1<
1i
1p
#292500000
0!
0<
0i
0p
#295000000
1!
b00111011 ;
1<
1i
1p
#297500000
0!
0<
0i
0p
#300000000
1!
b00111100 ;
1<
1i
1p
#302500000
0!
0<
0i
0p
#305000000
1!
b00111101 ;
1<
1i
1p
#307500000
0!
0<
0i
0p
#310000000
1!
b00111110 ;
1<
1i
1p
#312500000
0!
0<
0i
0p
#315000000
1!
b00111111 ;
1<
1i
1p
#317500000
0!
0<
0i
0p
#320000000
1!
b01000000 ;
1<
1i
1p
#322500000
0!
0<
0i
0p
#325000000
1!
b01000001 ;
1<
1i
1p
#327500000
0!
0<
0i
0p
#330000000
1!
b01000010 ;
1<
1i
1p
#332500000
0!
0<
0i
0p
#335000000
1!
b01000011 ;
1<
1i
1p
#337500000
0!
0<
0i
0p
#340000000
1!
b01000100 ;
1<
1i
1p
#342500000
0!
0<
0i
0p
#345000000
1!
b01000101 ;
1<
1i
1p
#347500000
0!
0<
0i
0p
#350000000
1!
b01000110 ;
1<
1i
1p
#352500000
0!
0<
0i
0p
#355000000
1!
b01000111 ;
1<
1i
1p
#357500000
0!
0<
0i
0p
#360000000
1!
b01001000 ;
1<
1i
1p
#362500000
0!
0<
0i
0p
#365000000
1!
b01001001 ;
1<
1i
1p
#367500000
0!
0<
0i
0p
#370000000
1!
b01001010 ;
1<
1i
1p
#372500000
0!
0<
0i
0p
#375000000
1!
b01001011 ;
1<
1i
1p
#377500000
0!
0<
0i
0p
#380000000
1!
b01001100 ;
1<
1i
1p
#382500000
0!
0<
0i
0p
#385000000
1!
b01001101 ;
1<
1i
1p
#387500000
0!
0<
0i
0p
#390000000
1!
b01001110 ;
1<
1i
1p
#392500000
0!
0<
0i
0p
#395000000
1!
b01001111 ;
1<
1i
1p
#397500000
0!
0<
0i
0p
#400000000
1!
b01010000 ;
1<
1i
1p
#402500000
0!
0<
0i
0p
#405000000
1!
b01010001 ;
1<
1i
1p
#407500000
0!
0<
0i
0p
#410000000
1!
b01010010 ;
1<
1i
1p
#412500000
0!
0<
0i
0p
#415000000
1!
b01010011 ;
1<
1i
1p
#417500000
0!
0<
0i
0p
#420000000
1!
b01010100 ;
1<
1i
1p
#422500000
0!
0<
0i
0p
#425000000
1!
b01010101 ;
1<
1i
1p
#427500000
0!
0<
0i
0p
#430000000
1!
b01010110 ;
1<
1i
1p
#432500000
0!
0<
0i
0p
#435000000
1!
b01010111 ;
1<
1i
1p
#437500000
0!
0<
0i
0p
#440000000
1!
b01011000 ;
1<
1i
1p
#442500000
0!
0<
0i
0p
#445000000
1!
b01011001 ;
1<
1i
1p
#447500000
0!
0<
0i
0p
#450000000
1!
b01011010 ;
1<
1i
1p
#452500000
0!
0<
0i
0p
#455000000
1!
b01011011 ;
1<
1i
1p
#457500000
0!
0<
0i
0p
#460000000
1!
b01011100 ;
1<
1i
1p
#462500000
0!
0<
0i
0p
#465000000
1!
b01011101 ;
1<
1i
1p
#467500000
0!
0<
0i
0p
#470000000
1!
b01011110 ;
1<
1i
1p
#472500000
0!
0<
0i
0p
#475000000
1!
b01011111 ;
1<
1i
1p
#477500000
0!
0<
0i
0p
#480000000
1!
b01100000 ;
1<
1i
1p
#482500000
0!
0<
0i
0p
#485000000
1!
b01100001 ;
1<
1i
1p
#487500000
0!
0<
0i
0p
#490000000
1!
b01100010 ;
1<
1i
1p
#492500000
0!
0<
0i
0p
#495000000
1!
b01100011 ;
1<
1i
1p
#497500000
0!
0<
0i
0p
#500000000
1!
b01100100 ;
1<
1i
1p
#502500000
0!
0<
0i
0p
#505000000
1!
b01100101 ;
1<
1i
1p
#507500000
0!
0<
0i
0p
#510000000
1!
b01100110 ;
1<
1i
1p
#512500000
0!
0<
0i
0p
#515000000
1!
b01100111 ;
1<
1i
1p
#517500000
0!
0<
0i
0p
#520000000
1!
b01101000 ;
1<
1i
1p
#522500000
0!
0<
0i
0p
#525000000
1!
b01101001 ;
1<
1i
1p
#527500000
0!
0<
0i
0p
#530000000
1!
b01101010 ;
1<
1i
1p
#532500000
0!
0<
0i
0p
#535000000
1!
b01101011 ;
1<
1i
1p
#537500000
0!
0<
0i
0p
#540000000
1!
b01101100 ;
1<
1i
1p
#542500000
0!
0<
0i
0p
#545000000
1!
b01101101 ;
1<
1i
1p
#547500000
0!
0<
0i
0p
#550000000
1!
b01101110 ;
1<
1i
1p
#552500000
0!
0<
0i
0p
#555000000
1!
b01101111 ;
1<
1i
1p
#557500000
0!
0<
0i
0p
#560000000
1!
b01110000 ;
1<
1i
1p
#562500000
0!
0<
0i
0p
#565000000
1!
b01110001 ;
1<
1i
1p
#567500000
0!
0<
0i
0p
#570000000
1!
b01110010 ;
1<
1i
1p
#572500000
0!
0<
0i
0p
#575000000
1!
b01110011 ;
1<
1i
1p
#577500000
0!
0<
0i
0p
#580000000
1!
b01110100 ;
1<
1i
1p
#582500000
0!
0<
0i
0p
#585000000
1!
b01110101 ;
1<
1i
1p
#587500000
0!
0<
0i
0p
#590000000
1!
b01110110 ;
1<
1i
1p
#592500000
0!
0<
0i
0p
#595000000
1!
b01110111 ;
1<
1i
1p
#597500000
0!
0<
0i
0p
#600000000
1!
b01111000 ;
1<
1i
1p
#602500000
0!
0<
0i
0p
#605000000
1!
b01111001 ;
1<
1i
1p
#607500000
0!
0<
0i
0p
#610000000
1!
b01111010 ;
1<
1i
1p
#612500000
0!
0<
0i
0p
#615000000
1!
b01111011 ;
1<
1i
1p
#617500000
0!
0<
0i
0p
#620000000
1!
b01111100 ;
1<
1i
1p
#622500000
0!
0<
0i
0p
#625000000
1!
b01111101 ;
1<
1i
1p
#627500000
0!
0<
0i
0p
#630000000
1!
b01111110 ;
1<
1i
1p
#632500000
0!
0<
0i
0p
#635000000
1!
b01111111 ;
1<
1i
1p
#637500000
0!
0<
0i
0p
#640000000
1!
b10000000 ;
1<
1i
1p
#642500000
0!
0<
0i
0p
#645000000
1!
b10000001 ;
1<
1i
1p
#647500000
0!
0<
0i
0p
#650000000
1!
b10000010 ;
1<
1i
1p
#652500000
0!
0<
0i
0p
#655000000
1!
b10000011 ;
1<
1i
1p
#657500000
0!
0<
0i
0p
#660000000
1!
b10000100 ;
1<
1i
1p
#662500000
0!
0<
0i
0p
#665000000
1!
b10000101 ;
1<
1i
1p
#667500000
0!
0<
0i
0p
#670000000
1!
b10000110 ;
1<
1i
1p
#672500000
0!
0<
0i
0p
#675000000
1!
b10000111 ;
1<
1i
1p
#677500000
0!
0<
0i
0p
#680000000
1!
b10001000 ;
1<
1i
1p
#682500000
0!
0<
0i
0p
#685000000
1!
b10001001 ;
1<
1i
1p
#687500000
0!
0<
0i
0p
#690000000
1!
b10001010 ;
1<
1i
1p
#692500000
0!
0<
0i
0p
#695000000
1!
b10001011 ;
1<
1i
1p
#697500000
0!
0<
0i
0p
#700000000
1!
b10001100 ;
1<
1i
1p
#702500000
0!
0<
0i
0p
#705000000
1!
b10001101 ;
1<
1i
1p
#707500000
0!
0<
0i
0p
#710000000
1!
b10001110 ;
1<
1i
1p
#712500000
0!
0<
0i
0p
#715000000
1!
b10001111 ;
1<
1i
1p
#717500000
0!
0<
0i
0p
#720000000
1!
b10010000 ;
1<
1i
1p
#722500000
0!
0<
0i
0p
#725000000
1!
b10010001 ;
1<
1i
1p
#727500000
0!
0<
0i
0p
#730000000
1!
b10010010 ;
1<
1i
1p
#732500000
0!
0<
0i
0p
#735000000
1!
b10010011 ;
1<
1i
1p
#737500000
0!
0<
0i
0p
#740000000
1!
b10010100 ;
1<
1i
1p
#742500000
0!
0<
0i
0p
#745000000
1!
b10010101 ;
1<
1i
1p
#747500000
0!
0<
0i
0p
#750000000
1!
b10010110 ;
1<
1i
1p
#752500000
0!
0<
0i
0p
#755000000
1!
b10010111 ;
1<
1i
1p
#757500000
0!
0<
0i
0p
#760000000
1!
b10011000 ;
1<
1i
1p
#762500000
0!
0<
0i
0p
#765000000
1!
b10011001 ;
1<
1i
1p
#767500000
0!
0<
0i
0p
#770000000
1!
b10011010 ;
1<
1i
1p
#772500000
0!
0<
0i
0p
#775000000
1!
b10011011 ;
1<
1i
1p
#777500000
0!
0<
0i
0p
#780000000
1!
b10011100 ;
1<
1i
1p
#782500000
0!
0<
0i
0p
#785000000
1!
b10011101 ;
1<
1i
1p
#787500000
0!
0<
0i
0p
#790000000
1!
b10011110 ;
1<
1i
1p
#792500000
0!
0<
0i
0p
#795000000
1!
b10011111 ;
1<
1i
1p
#797500000
0!
0<
0i
0p
#800000000
1!
b10100000 ;
1<
1i
1p
#802500000
0!
0<
0i
0p
#805000000
1!
b10100001 ;
1<
1i
1p
#807500000
0!
0<
0i
0p
#810000000
1!
b10100010 ;
1<
1i
1p
#812500000
0!
0<
0i
0p
#815000000
1!
b10100011 ;
1<
1i
1p
#817500000
0!
0<
0i
0p
#820000000
1!
b10100100 ;
1<
1i
1p
#822500000
0!
0<
0i
0p
#825000000
1!
b10100101 ;
1<
1i
1p
#827500000
0!
0<
0i
0p
#830000000
1!
b10100110 ;
1<
1i
1p
#832500000
0!
0<
0i
0p
#835000000
1!
b10100111 ;
1<
1i
1p
#837500000
0!
0<
0i
0p
#840000000
1!
b10101000 ;
1<
1i
1p
#842500000
0!
0<
0i
0p
#845000000
1!
b10101001 ;
1<
1i
1p
#847500000
0!
0<
0i
0p
#850000000
1!
b10101010 ;
1<
1i
1p
#852500000
0!
0<
0i
0p
#855000000
1!
b10101011 ;
1<
1i
1p
#857500000
0!
0<
0i
0p
#860000000
1!
b10101100 ;
1<
1i
1p
#862500000
0!
0<
0i
0p
#865000000
1!
b10101101 ;
1<
1i
1p
#867500000
0!
0<
0i
0p
#870000000
1!
b10101110 ;
1<
1i
1p
#872500000
0!
0<
0i
0p
#875000000
1!
b10101111 ;
1<
1i
1p
#877500000
0!
0<
0i
0p
#880000000
1!
b10110000 ;
1<
1i
1p
#882500000
0!
0<
0i
0p
#885000000
1!
b10110001 ;
1<
1i
1p
#887500000
0!
0<
0i
0p
#890000000
1!
b10110010 ;
1<
1i
1p
#892500000
0!
0<
0i
0p
#895000000
1!
b10110011 ;
1<
1i
1p
#897500000
0!
0<
0i
0p
#900000000
1!
b10110100 ;
1<
1i
1p
#902500000
0!
0<
0i
0p
#905000000
1!
b10110101 ;
1<
1i
1p
#907500000
0!
0<
0i
0p
#910000000
1!
b10110110 ;
1<
1i
1p
#912500000
0!
0<
0i
0p
#915000000
1!
b10110111 ;
1<
1i
1p
#917500000
0!
0<
0i
0p
#920000000
1!
b10111000 ;
1<
1i
1p
#922500000
0!
0<
0i
0p
#925000000
1!
b10111001 ;
1<
1i
1p
#927500000
0!
0<
0i
0p
#930000000
1!
b10111010 ;
1<
1i
1p
#932500000
0!
0<
0i
0p
#935000000
1!
b10111011 ;
1<
1i
1p
#937500000
0!
0<
0i
0p
#940000000
1!
b10111100 ;
1<
1i
1p
#942500000
0!
0<
0i
0p
#945000000
1!
b10111101 ;
1<
1i
1p
#947500000
0!
0<
0i
0p
#950000000
1!
b10111110 ;
1<
1i
1p
#952500000
0!
0<
0i
0p
#955000000
1!
b10111111 ;
1<
1i
1p
#957500000
0!
0<
0i
0p
#960000000
1!
b11000000 ;
1<
1i
1p
#962500000
0!
0<
0i
0p
#965000000
1!
b11000001 ;
1<
1i
1p
#967500000
0!
0<
0i
0p
#970000000
1!
b11000010 ;
1<
1i
1p
#972500000
0!
0<
0i
0p
#975000000
1!
b11000011 ;
1<
1i
1p
#977500000
0!
0<
0i
0p
#980000000
1!
b11000100 ;
1<
1i
1p
#982500000
0!
0<
0i
0p
#985000000
1!
b11000101 ;
1<
1i
1p
#987500000
0!
0<
0i
0p
#990000000
1!
b11000110 ;
1<
1i
1p
#992500000
0!
0<
0i
0p
#995000000
1!
b11000111 ;
1<
1i
1p
#997500000
0!
0<
0i
0p
#1000000000
1!
b11001000 ;
1<
1i
1p
